&ANALYZE-SUSPEND _VERSION-NUMBER AB_v10r12
&ANALYZE-RESUME
&ANALYZE-SUSPEND _UIB-CODE-BLOCK _CUSTOM _DEFINITIONS Include 
/* framework/do-mqevents.i
   Support sending MQ messages
   D.Sinclair 11.30.2022
 */

{framework/sysmq.i &tableAlias=sysMqEvent}

/* _UIB-CODE-BLOCK-END */
&ANALYZE-RESUME


&ANALYZE-SUSPEND _UIB-PREPROCESSOR-BLOCK 

/* ********************  Preprocessor Definitions  ******************** */



/* _UIB-PREPROCESSOR-BLOCK-END */
&ANALYZE-RESUME


/* ************************  Function Prototypes ********************** */

&ANALYZE-SUSPEND _UIB-CODE-BLOCK _FUNCTION-FORWARD doMqEvents Include 
FUNCTION doMqEvents RETURNS LOGICAL PRIVATE
  (  )  FORWARD.

/* _UIB-CODE-BLOCK-END */
&ANALYZE-RESUME


/* *********************** Procedure Settings ************************ */

&ANALYZE-SUSPEND _PROCEDURE-SETTINGS
/* Settings for THIS-PROCEDURE
   Type: Include
   Allow: 
   Frames: 0
   Add Fields to: Neither
   Other Settings: INCLUDE-ONLY
 */
&ANALYZE-RESUME _END-PROCEDURE-SETTINGS

/* *************************  Create Window  ************************** */

&ANALYZE-SUSPEND _CREATE-WINDOW
/* DESIGN Window definition (used by the UIB) 
  CREATE WINDOW Include ASSIGN
         HEIGHT             = 15
         WIDTH              = 60.
/* END WINDOW DEFINITION */
                                                                        */
&ANALYZE-RESUME

 


&ANALYZE-SUSPEND _UIB-CODE-BLOCK _CUSTOM _MAIN-BLOCK Include 



/* _UIB-CODE-BLOCK-END */
&ANALYZE-RESUME


/* ************************  Function Implementations ***************** */

&ANALYZE-SUSPEND _UIB-CODE-BLOCK _FUNCTION doMqEvents Include 
FUNCTION doMqEvents RETURNS LOGICAL PRIVATE
  (  ) :

    if iResponse:isFault()
     then return false.

    if not iResponse:hasEvents() 
     then return false.
    
    iResponse:getEvents(output table sysMQevent).

    run framework/addsysmq.p (input table sysMQevent,
                              suppliedClientID,
                              suppliedSessionID,
                              suppliedIPAddress,
                              suppliedUID,
                              suppliedActionID).
    
   RETURN true.
END FUNCTION.

/* _UIB-CODE-BLOCK-END */
&ANALYZE-RESUME

