&ANALYZE-SUSPEND _VERSION-NUMBER AB_v10r12
&ANALYZE-RESUME
&ANALYZE-SUSPEND _UIB-CODE-BLOCK _CUSTOM _DEFINITIONS Include 
/*------------------------------------------------------------------------
    File        : lib/brw-rowDisplay-multi.i
    Author      : John Oliver
    Date        : 02/19/2016
    
    Purpose     : Event code for browse 'row-display' event for 
                  every other row highlighting. Modified by John Oliver
                  to work with multiple browse widgets within multiple child
                  frames.
    
    Usage       : Place this include file in the 'row-display' event
                  for the browse control.
                  Requires lib/std-def.i, lib/brw-main-multi.i 
------------------------------------------------------------------------*/

for first brw where brw.name = self:name:
  rowColor = if (current-result-row(brw.name) modulo 2 = 0) then 32 else ?.
  do std-in = 1 to num-entries(brw.colHandleList):
    colHandle = handle(entry(std-in, brw.colHandleList)).
    if valid-handle(colHandle)
     then colHandle:bgcolor = rowColor.
  end.
end.




/* _UIB-CODE-BLOCK-END */
&ANALYZE-RESUME


&ANALYZE-SUSPEND _UIB-PREPROCESSOR-BLOCK 

/* ********************  Preprocessor Definitions  ******************** */



/* _UIB-PREPROCESSOR-BLOCK-END */
&ANALYZE-RESUME



/* *********************** Procedure Settings ************************ */

&ANALYZE-SUSPEND _PROCEDURE-SETTINGS
/* Settings for THIS-PROCEDURE
   Type: Include
   Allow: 
   Frames: 0
   Add Fields to: Neither
   Other Settings: INCLUDE-ONLY
 */
&ANALYZE-RESUME _END-PROCEDURE-SETTINGS

/* *************************  Create Window  ************************** */

&ANALYZE-SUSPEND _CREATE-WINDOW
/* DESIGN Window definition (used by the UIB) 
  CREATE WINDOW Include ASSIGN
         HEIGHT             = 2.86
         WIDTH              = 60.
/* END WINDOW DEFINITION */
                                                                        */
&ANALYZE-RESUME

 


&ANALYZE-SUSPEND _UIB-CODE-BLOCK _CUSTOM _MAIN-BLOCK Include 


/* ***************************  Main Block  *************************** */

/* _UIB-CODE-BLOCK-END */
&ANALYZE-RESUME


