&ANALYZE-SUSPEND _VERSION-NUMBER AB_v10r12
&ANALYZE-RESUME
&ANALYZE-SUSPEND _UIB-CODE-BLOCK _CUSTOM _DEFINITIONS Include 
/* ***************************  Definitions  ************************** */

/* _UIB-CODE-BLOCK-END */
&ANALYZE-RESUME


&ANALYZE-SUSPEND _UIB-PREPROCESSOR-BLOCK 

/* ********************  Preprocessor Definitions  ******************** */



/* _UIB-PREPROCESSOR-BLOCK-END */
&ANALYZE-RESUME



/* *********************** Procedure Settings ************************ */

&ANALYZE-SUSPEND _PROCEDURE-SETTINGS
/* Settings for THIS-PROCEDURE
   Type: Include
   Allow: 
   Frames: 0
   Add Fields to: Neither
   Other Settings: INCLUDE-ONLY
 */
&ANALYZE-RESUME _END-PROCEDURE-SETTINGS

/* *************************  Create Window  ************************** */

&ANALYZE-SUSPEND _CREATE-WINDOW
/* DESIGN Window definition (used by the UIB) 
  CREATE WINDOW Include ASSIGN
         HEIGHT             = 15
         WIDTH              = 60.
/* END WINDOW DEFINITION */
                                                                        */
&ANALYZE-RESUME

 


&ANALYZE-SUSPEND _UIB-CODE-BLOCK _CUSTOM _MAIN-BLOCK Include 


/* ***************************  Main Block  *************************** */

&if defined(state) = 0 &then
&scoped-define state "ALL"
&endif

&if defined(addAll) = 0 &then
&scoped-define addAll false
&endif

/* get the counties */
publish "GetCounties" (output table county).

std-in = 0.
{&combo}:list-item-pairs = "ALL" + {&combo}:delimiter + "ALL".
if {&state} = "ALL"
 then
  do:
    std-in = 1.
    {&combo}:add-last("Please Select a State", "NoState") in frame {&frame-name}.
  end.
 else
  for each county no-lock
        by county.description:
        
    std-in = std-in + 1.
    if {&state} <> "ALL" and {&state} <> county.stateID
     then next.
    
    {&combo}:add-last(county.description + " [" + county.countyID + "]", county.countyID) in frame {&frame-name}.
  end.
  
if std-in > 0 and not {&addAll}
 then {&combo}:delete(1) in frame {&frame-name}.
 
{&combo}:screen-value = entry(2,{&combo}:list-item-pairs, {&combo}:delimiter).

/* _UIB-CODE-BLOCK-END */
&ANALYZE-RESUME


