&ANALYZE-SUSPEND _VERSION-NUMBER AB_v10r12
&ANALYZE-RESUME
&ANALYZE-SUSPEND _UIB-CODE-BLOCK _CUSTOM _DEFINITIONS Include 
/*------------------------------------------------------------------------
    File        : 
    Purpose     :

    Syntax      :

    Description :

    Author(s)   :
    Created     :
    Notes       :
  ----------------------------------------------------------------------*/
/*          This .W file was created with the Progress AppBuilder.      */
/*----------------------------------------------------------------------*/

/* ***************************  Definitions  ************************** */

/* _UIB-CODE-BLOCK-END */
&ANALYZE-RESUME


&ANALYZE-SUSPEND _UIB-PREPROCESSOR-BLOCK 

/* ********************  Preprocessor Definitions  ******************** */



/* _UIB-PREPROCESSOR-BLOCK-END */
&ANALYZE-RESUME


/* ************************  Function Prototypes ********************** */


/* *********************** Procedure Settings ************************ */

&ANALYZE-SUSPEND _PROCEDURE-SETTINGS
/* Settings for THIS-PROCEDURE
   Type: Include
   Allow: 
   Frames: 0
   Add Fields to: Neither
   Other Settings: INCLUDE-ONLY
 */
&ANALYZE-RESUME _END-PROCEDURE-SETTINGS

/* *************************  Create Window  ************************** */

&ANALYZE-SUSPEND _CREATE-WINDOW
/* DESIGN Window definition (used by the UIB) 
  CREATE WINDOW Include ASSIGN
         HEIGHT             = 15
         WIDTH              = 60.
/* END WINDOW DEFINITION */
                                                                        */
&ANALYZE-RESUME

 


&ANALYZE-SUSPEND _UIB-CODE-BLOCK _CUSTOM _MAIN-BLOCK Include 


/* ***************************  Main Block  *************************** */

if not valid-handle({1})
 then return.
 
create uiMakeRequired.
assign
  uiMakeRequired.uiRequired       = {1}
  uiMakeRequired.uiRequiredName   = {1}:name + "Required"
  uiMakeRequired.uiRequiredFrame  = {1}:frame
  uiMakeRequired.uiRequiredRow    = {1}:row + 0.19
  uiMakeRequired.uiRequiredCol    = {1}:column + {1}:width + 0.2
  uiMakeRequired.uiRequiredHeight = ({1}:height / 2)
  .

/* _UIB-CODE-BLOCK-END */
&ANALYZE-RESUME


/* ************************  Function Implementations ***************** */

