&ANALYZE-SUSPEND _VERSION-NUMBER AB_v10r12
&ANALYZE-RESUME
&ANALYZE-SUSPEND _UIB-CODE-BLOCK _CUSTOM _DEFINITIONS Include 
/*------------------------------------------------------------------------
    File        : 
    Purpose     :

    Syntax      :

    Description :

    Author(s)   :
    Created     :
    Notes       :
  ----------------------------------------------------------------------*/
/*          This .W file was created with the Progress AppBuilder.      */
/*----------------------------------------------------------------------*/

/* ***************************  Definitions  ************************** */

{tt/openwindow.i}

/* _UIB-CODE-BLOCK-END */
&ANALYZE-RESUME


&ANALYZE-SUSPEND _UIB-PREPROCESSOR-BLOCK 

/* ********************  Preprocessor Definitions  ******************** */



/* _UIB-PREPROCESSOR-BLOCK-END */
&ANALYZE-RESUME


/* ************************  Function Prototypes ********************** */

&ANALYZE-SUSPEND _UIB-CODE-BLOCK _FUNCTION-FORWARD openWindowForAgent Include 
FUNCTION openWindowForAgent RETURNS HANDLE
  ( input pAgentID as character,
    input pType as character,
    input pFile as character )  FORWARD.

/* _UIB-CODE-BLOCK-END */
&ANALYZE-RESUME


/* *********************** Procedure Settings ************************ */

&ANALYZE-SUSPEND _PROCEDURE-SETTINGS
/* Settings for THIS-PROCEDURE
   Type: Include
   Allow: 
   Frames: 0
   Add Fields to: Neither
   Other Settings: INCLUDE-ONLY
 */
&ANALYZE-RESUME _END-PROCEDURE-SETTINGS

/* *************************  Create Window  ************************** */

&ANALYZE-SUSPEND _CREATE-WINDOW
/* DESIGN Window definition (used by the UIB) 
  CREATE WINDOW Include ASSIGN
         HEIGHT             = 15
         WIDTH              = 60.
/* END WINDOW DEFINITION */
                                                                        */
&ANALYZE-RESUME

 


&ANALYZE-SUSPEND _UIB-CODE-BLOCK _CUSTOM _MAIN-BLOCK Include 


/* ***************************  Main Block  *************************** */

/* _UIB-CODE-BLOCK-END */
&ANALYZE-RESUME


/* ************************  Function Implementations ***************** */

&ANALYZE-SUSPEND _UIB-CODE-BLOCK _FUNCTION openWindowForAgent Include 
FUNCTION openWindowForAgent RETURNS HANDLE
  ( input pAgentID as character,
    input pType as character,
    input pFile as character ) :
/*------------------------------------------------------------------------------
@description Opens the window if not open and calls the procedure ShowWindow
------------------------------------------------------------------------------*/
  define variable hWindow as handle no-undo.
  define variable hFileDataSrv as handle no-undo.
  define variable cAgentWindow as character no-undo.
  define buffer openwindow for openwindow.

  for each openwindow:
    if not valid-handle(openwindow.procHandle) 
     then delete openwindow.
  end.
  assign
    hWindow = ?
    hFileDataSrv = ?
    cAgentWindow = pAgentID + " " + pType
    .
  publish "OpenAgent" (pAgentID, output hFileDataSrv).
  for first openwindow no-lock
      where openwindow.procFile = cAgentWindow:
      
    hWindow = openwindow.procHandle.
  end.
  
  if not valid-handle(hWindow)
   then
    do:
      run value(pFile) persistent set hWindow (hFileDataSrv).
      create openwindow.
      assign
        openwindow.procFile = cAgentWindow
        openwindow.procHandle = hWindow
        .
    end.

  run ShowWindow in hWindow no-error.
  return hWindow.

END FUNCTION.

/* _UIB-CODE-BLOCK-END */
&ANALYZE-RESUME

