&ANALYZE-SUSPEND _VERSION-NUMBER AB_v10r12
&ANALYZE-RESUME
&ANALYZE-SUSPEND _UIB-CODE-BLOCK _CUSTOM _DEFINITIONS Include 
/*------------------------------------------------------------------------
@file resize-column.i
@description Resize the column(s) when resizing the window
  ----------------------------------------------------------------------*/
/*          This .W file was created with the Progress AppBuilder.      */
/*----------------------------------------------------------------------*/

/* ***************************  Definitions  ************************** */

/* _UIB-CODE-BLOCK-END */
&ANALYZE-RESUME


&ANALYZE-SUSPEND _UIB-PREPROCESSOR-BLOCK 

/* ********************  Preprocessor Definitions  ******************** */



/* _UIB-PREPROCESSOR-BLOCK-END */
&ANALYZE-RESUME



/* *********************** Procedure Settings ************************ */

&ANALYZE-SUSPEND _PROCEDURE-SETTINGS
/* Settings for THIS-PROCEDURE
   Type: Include
   Allow: 
   Frames: 0
   Add Fields to: Neither
   Other Settings: INCLUDE-ONLY
 */
&ANALYZE-RESUME _END-PROCEDURE-SETTINGS

/* *************************  Create Window  ************************** */

&ANALYZE-SUSPEND _CREATE-WINDOW
/* DESIGN Window definition (used by the UIB) 
  CREATE WINDOW Include ASSIGN
         HEIGHT             = 15
         WIDTH              = 60.
/* END WINDOW DEFINITION */
                                                                        */
&ANALYZE-RESUME

 


&ANALYZE-SUSPEND _UIB-CODE-BLOCK _CUSTOM _MAIN-BLOCK Include 


/* ***************************  Main Block  *************************** */

do std-in = 1 to num-entries({&col}):
  std-ha = getColumn(browse {&browse-name}:handle, entry(std-in, {&col})).
  if valid-handle(std-ha)
   then std-ha:width-pixels = {&var} + ((frame {&frame-name}:width-pixels - {&window-name}:min-width-pixels) / num-entries({&col})).
end.

/* _UIB-CODE-BLOCK-END */
&ANALYZE-RESUME


