&ANALYZE-SUSPEND _VERSION-NUMBER AB_v10r12
&ANALYZE-RESUME
&ANALYZE-SUSPEND _UIB-CODE-BLOCK _CUSTOM _DEFINITIONS Include 
/* lib/unsetquestion.i

   seq:    Number for variable q<seq>Y, etc.
   ----------------------------------------------------------------------*/

if valid-handle(q{&seq}y) 
 then q{&seq}y:checked = false.
if valid-handle(q{&seq}n) 
 then q{&seq}n:checked = false.
if valid-handle(q{&seq}a) 
 then q{&seq}a:checked = false.
if valid-handle(q{&seq}u) 
 then q{&seq}u:checked = false.

if valid-handle(q{&seq}) 
 then q{&seq}:screen-value = "".

if valid-handle(w{&seq}) 
 then w{&seq}:visible = false.

if valid-handle(b{&seq}) 
 then 
  do: b{&seq}:load-image("images/notesblank.bmp").
      b{&seq}:sensitive = false.
  end.

/* _UIB-CODE-BLOCK-END */
&ANALYZE-RESUME


&ANALYZE-SUSPEND _UIB-PREPROCESSOR-BLOCK 

/* ********************  Preprocessor Definitions  ******************** */



/* _UIB-PREPROCESSOR-BLOCK-END */
&ANALYZE-RESUME



/* *********************** Procedure Settings ************************ */

&ANALYZE-SUSPEND _PROCEDURE-SETTINGS
/* Settings for THIS-PROCEDURE
   Type: Include
   Allow: 
   Frames: 0
   Add Fields to: Neither
   Other Settings: INCLUDE-ONLY
 */
&ANALYZE-RESUME _END-PROCEDURE-SETTINGS

/* *************************  Create Window  ************************** */

&ANALYZE-SUSPEND _CREATE-WINDOW
/* DESIGN Window definition (used by the UIB) 
  CREATE WINDOW Include ASSIGN
         HEIGHT             = 15
         WIDTH              = 60.
/* END WINDOW DEFINITION */
                                                                        */
&ANALYZE-RESUME

 


&ANALYZE-SUSPEND _UIB-CODE-BLOCK _CUSTOM _MAIN-BLOCK Include 



/* _UIB-CODE-BLOCK-END */
&ANALYZE-RESUME


