&ANALYZE-SUSPEND _VERSION-NUMBER AB_v10r12
&ANALYZE-RESUME
&ANALYZE-SUSPEND _UIB-CODE-BLOCK _CUSTOM _DEFINITIONS Include 
/*------------------------------------------------------------------------
@file win-proc.i
@description Procedures common to all windows

@author John Oliver
@created 10/25/2018
  ----------------------------------------------------------------------*/

/* ***************************  Definitions  ************************** */

/* _UIB-CODE-BLOCK-END */
&ANALYZE-RESUME


&ANALYZE-SUSPEND _UIB-PREPROCESSOR-BLOCK 

/* ********************  Preprocessor Definitions  ******************** */



/* _UIB-PREPROCESSOR-BLOCK-END */
&ANALYZE-RESUME


/* ************************  Function Prototypes ********************** */

/* *********************** Procedure Settings ************************ */

&ANALYZE-SUSPEND _PROCEDURE-SETTINGS
/* Settings for THIS-PROCEDURE
   Type: Include
   Allow: 
   Frames: 0
   Add Fields to: Neither
   Other Settings: INCLUDE-ONLY
 */
&ANALYZE-RESUME _END-PROCEDURE-SETTINGS

/* *************************  Create Window  ************************** */

&ANALYZE-SUSPEND _CREATE-WINDOW
/* DESIGN Window definition (used by the UIB) 
  CREATE WINDOW Include ASSIGN
         HEIGHT             = 15
         WIDTH              = 60.
/* END WINDOW DEFINITION */
                                                                        */
&ANALYZE-RESUME

 


&ANALYZE-SUSPEND _UIB-CODE-BLOCK _CUSTOM _MAIN-BLOCK Include 


/* ***************************  Main Block  *************************** */

do:
end.

/* _UIB-CODE-BLOCK-END */
&ANALYZE-RESUME


/* **********************  Internal Procedures  *********************** */

&ANALYZE-SUSPEND _UIB-CODE-BLOCK _PROCEDURE ShowWindow Include 
PROCEDURE ShowWindow :
/*------------------------------------------------------------------------------
  Purpose:     
  Parameters:  <none>
  Notes:       
------------------------------------------------------------------------------*/
  {&window-name}:move-to-top().

END PROCEDURE.

/* _UIB-CODE-BLOCK-END */
&ANALYZE-RESUME

/* ************************  Function Implementations ***************** */

