{"RCUI": {
  "developerComments":[
      {"propertyTypeComments": "Alabama state have 4 property types residential, multifamily, multifamily construction and residential construction. Each property type have its loan rate types,owner rate types and second loan rate types."
	  },
	  {"loanRateTypeComments": "Consist, list of valid rate types of loan policy for residential property in Georgia state. The simo checks indicates if ratetype is valid for simultaneous use-case. If simo is true then rate type occur as simo as well as standalone, if simo is false then rate type occur only an standalone and if simo is null then rate type will occur only as simo. priorPolicyAmountFlag indicates if Prior Policy Amount fill-in is to enable on UI. priorPolicyDateFlag indicates if Effective Date fill-in is to enable on UI."
	  },
	  {"ownerRateTypeComments": "Consist, list of valid rate types of owner policy for residential property in   Georgia state. The simo checks indicates if ratetype is valid for simultaneous use-case. If simo is true then rate type occur as simo as well as standalone, if simo is false then rate type occur only an standalone and if simo is null then rate type will occur only as simo. priorPolicyAmountFlag indicates if Prior Policy Amount fill-in is to enable on UI. priorPolicyDateFlag indicates if Effective Date fill-in is to enable on UI."
	  },
	  {"scndLoanRateTypeComments": "Consist, list of valid rate types of Second loan policy for residential property in Georgia state. The simo checks indicates if ratetype is valid for simultaneous use-case. If simo is true then rate type occur as simo as well as standalone, if simo is false then rate type occur only an standalone and if simo is null then rate type will occur only as simo. priorPolicyAmountFlag indicates if Prior Policy Amount fill-in is to enable on UI. priorPolicyDateFlag indicates if Effective Date fill-in is to enable on UI."
	  }],
  "proposedRateConfig": [
    {
	  "showProposedRateFlag": false
	}
	],
  "propertyType": [
    {
	  "propertyTypecode": "R",
      "description": "1 to 4 Family Residential",
      "loanRateType": [
        {
          "loanRateTypeCode": "JR",
          "description": "Jr. Limited Coverage",
          "simo": false,
		  "priorPolicyAmountFlag": false,
		  "priorPolicyDateFlag": false
        },
        {
          "loanRateTypeCode": "O",
          "description": "Original\/Short Form",
          "simo": true,
		  "priorPolicyAmountFlag": false,
		  "priorPolicyDateFlag": false
        },
        {
          "loanRateTypeCode": "SM",
          "description": "Second Mortgage",
          "simo": false,
		  "priorPolicyAmountFlag": false,
		  "priorPolicyDateFlag": false
        },
        {
          "loanRateTypeCode": "E",
          "description": "Expanded",
          "simo": true,
		  "priorPolicyAmountFlag": false,
		  "priorPolicyDateFlag": false
        },
		{
          "loanRateTypeCode": "NA",
          "description": "N/A",
          "simo": false,
		  "priorPolicyAmountFlag": false,
		  "priorPolicyDateFlag": false
        }
      ],
      "ownerRateType": [
        {
          "ownerRateTypeCode": "O",
          "description": "Original",
          "simo": true,
		  "priorPolicyAmountFlag": false,
		  "priorPolicyDateFlag": false
        },
        {
          "ownerRateTypeCode": "H",
          "description": "Homeowners",
          "simo": true,
		  "priorPolicyAmountFlag": false,
		  "priorPolicyDateFlag": false
        },
		{
          "ownerRateTypeCode": "NA",
          "description": "N/A",
          "simo": false,
		  "priorPolicyAmountFlag": false,
		  "priorPolicyDateFlag": false
        }
      ],
      "scndLoanRateType": [
        {
          "scndLoanRateTypecode": "SM",
          "description": "Second Mortgage",
          "simo": null,
		  "priorPolicyAmountFlag": false,
		  "priorPolicyDateFlag": false
        }
      ]
    },
    {
	  "propertyTypecode": "M",
      "description": "Multi-Family Residential\/Commercial",
      "loanRateType": [
        {
          "loanRateTypeCode": "O",
          "description": "Original",
          "simo": true,
		  "priorPolicyAmountFlag": false,
		  "priorPolicyDateFlag": false
        },
		{
          "loanRateTypeCode": "NA",
          "description": "N/A",
          "simo": false,
		  "priorPolicyAmountFlag": false,
		  "priorPolicyDateFlag": false
        }
      ],
      "ownerRateType": [
        {
          "ownerRateTypeCode": "O",
          "description": "Original",
          "simo": true,
		  "priorPolicyAmountFlag": false,
		  "priorPolicyDateFlag": false
        },
		{
          "ownerRateTypeCode": "NA",
          "description": "N/A",
          "simo": false,
		  "priorPolicyAmountFlag": false,
		  "priorPolicyDateFlag": false
        }
      ]
    },
    {
      "propertyTypecode": "CM",
      "description": "Multi-Family\/Commercial Construction",    
      "loanRateType": [
        {
          "loanRateTypeCode": "C",
          "description": "Construction",
          "simo": true,
		  "priorPolicyAmountFlag": false,
		  "priorPolicyDateFlag": false
        },
		{
          "loanRateTypeCode": "NA",
          "description": "N/A",
          "simo": false,
		  "priorPolicyAmountFlag": false,
		  "priorPolicyDateFlag": false
        }
      ],
      "ownerRateType": [
        {
          "ownerRateTypeCode": "O",
          "description": "Original",
          "simo": true,
		  "priorPolicyAmountFlag": false,
		  "priorPolicyDateFlag": false
        },
		{
          "ownerRateTypeCode": "NA",
          "description": "N/A",
          "simo": false,
		  "priorPolicyAmountFlag": false,
		  "priorPolicyDateFlag": false
        }
      ]
    },
	{
	  "propertyTypecode": "CR",
      "description": "Residential Construction",    
      "loanRateType": [
        {
          "loanRateTypeCode": "C",
          "description": "Construction",
          "simo": true,
		  "priorPolicyAmountFlag": false,
		  "priorPolicyDateFlag": false
        },
		{
          "loanRateTypeCode": "NA",
          "description": "N/A",
          "simo": false,
		  "priorPolicyAmountFlag": false,
		  "priorPolicyDateFlag": false
        }
      ],
      "ownerRateType": [
        {
          "ownerRateTypeCode": "O",
          "description": "Original",
          "simo": true,
		  "priorPolicyAmountFlag": false,
		  "priorPolicyDateFlag": false
        },
		{
          "ownerRateTypeCode": "NA",
          "description": "N/A",
          "simo": false,
		  "priorPolicyAmountFlag": false,
		  "priorPolicyDateFlag": false
        }
      ]
    }
  ]
}}
