{"RCUI": {
  "developerComments":[
      {"propertyTypeComments": "Missouri state have 3 property types residential, multifamily and construction. Each property type have its loan rate types and owner rate types"
	  },
	  {"loanRateTypeComments": "Consist, list of valid rate types of loan policy for residential property in Missouri state. The simo checks indicates if ratetype is valid for simultaneous use-case. priorPolicyAmountFlag indicates whether Prior Policy Amount fill-in is to enable on UI. priorPolicyDateFlag indicates whether Effective Date fill-in is to enable on UI."
	  },
	  {"ownerRateTypeComments": "Consist, list of valid rate types of owner policy for residential property in Missouri state. The simo checks indicates if ratetype is valid for simultaneous use-case. priorPolicyAmountFlag indicates whether Prior Policy Amount fill-in is to enable on UI. priorPolicyDateFlag indicates whether Effective Date fill-in is to enable on UI."
	  },
	  {"scndLoanRateTypeComments": "Consist, list of valid rate types of Second loan policy for residential property in Missouri state. The simo checks indicates if ratetype is valid for simultaneous use-case. priorPolicyAmountFlag indicates whether Prior Policy Amount fill-in is to enable on UI. priorPolicyDateFlag indicates whether Effective Date fill-in is to enable on UI."
	  },
      {"endorsementComments": "Consist, list of valid endorsements in Missouri state. The endorsementType indicates whether the endorsement is for loan(L), owner(O) or both(blank). ProposedRate indicates rate for endorsement specified by agent. PropertyTypeList indicates list of property type for which endorsement is valid if blank then endorsement is valid for all property type.RateTypeList indicates list of rate type for which endorsement is valid if blank then endorsement is valid for all rate type."
      }
	  ],
  "proposedRateConfig": [
    {
	  "showProposedRateFlag": true
	}
	],
  "propertyType": [
    {
      "propertyTypecode": "R",
      "description": "1 to 4 Family Residential",
      "loanRateType": [
        {
          "loanRateTypeCode": "LO",
          "description": "Original",
          "simo": true,
		  "priorPolicyAmountFlag": false,
		  "priorPolicyDateFlag": false
        },
        {
          "loanRateTypeCode": "JR",
          "description": "Jr. Limited Coverage",
          "simo": false,
		  "priorPolicyAmountFlag": false,
		  "priorPolicyDateFlag": false
        },
        {
          "loanRateTypeCode": "Re",
          "description": "Reissue",
          "simo": true,
		  "priorPolicyAmountFlag": true,
		  "priorPolicyDateFlag": false
        },             
        {
          "loanRateTypeCode": "SR",
          "description": "Substitution-Refinance",
          "simo": false,
		  "priorPolicyAmountFlag": false,
		  "priorPolicyDateFlag": false
        },
		{
          "loanRateTypeCode": "NA",
          "description": "N/A",
          "simo": false,
		  "priorPolicyAmountFlag": false,
		  "priorPolicyDateFlag": false
        }
      ],
      "ownerRateType": [
        {
          "ownerRateTypeCode": "O",
          "description": "Original",
          "simo": true,
		  "priorPolicyAmountFlag": false,
		  "priorPolicyDateFlag": false
        },
        {
          "ownerRateTypeCode": "Re",
          "description": "Reissue",
          "simo": true,
		  "priorPolicyAmountFlag": false,
		  "priorPolicyDateFlag": false
        },
        {
          "ownerRateTypeCode": "H",
          "description": "Homeowners",
          "simo": true,
		  "priorPolicyAmountFlag": false,
		  "priorPolicyDateFlag": false
        },
		{
          "ownerRateTypeCode": "NA",
          "description": "N/A",
          "simo": false,
		  "priorPolicyAmountFlag": false,
		  "priorPolicyDateFlag": false
        }
      ],
      "scndLoanRateType": [
        {
          "scndLoanRateTypecode": "SM",
          "description": "Second Mortgage",
          "simo": true,
		  "priorPolicyAmountFlag": false,
		  "priorPolicyDateFlag": false
        }

		
      ]
    },
    {
      "propertyTypecode": "M",
      "description": "Multi-Family Residential\/Commercial",
      "loanRateType": [
        {
          "loanRateTypeCode": "LO",
          "description": "Original",
          "simo": true,
		  "priorPolicyAmountFlag": false,
		  "priorPolicyDateFlag": false
        },
        {
          "loanRateTypeCode": "JR",
          "description": "Jr. Limited Coverage",
          "simo": false,
		  "priorPolicyAmountFlag": false,
		  "priorPolicyDateFlag": false
        },
        {
          "loanRateTypeCode": "Re",
          "description": "Reissue",
          "simo": true,
		  "priorPolicyAmountFlag": true,
		  "priorPolicyDateFlag": false
        },            
        {
          "loanRateTypeCode": "SR",
          "description": "Substitution-Refinance",
          "simo": false,
		  "priorPolicyAmountFlag": false,
		  "priorPolicyDateFlag": false
        },
		{
          "loanRateTypeCode": "NA",
          "description": "N/A",
          "simo": false,
		  "priorPolicyAmountFlag": false,
		  "priorPolicyDateFlag": false
        }
      ],
      "ownerRateType": [
        {
          "ownerRateTypeCode": "O",
          "description": "Original",
          "simo": true,
		  "priorPolicyAmountFlag": false,
		  "priorPolicyDateFlag": false
        },
        {
          "ownerRateTypeCode": "Re",
          "description": "Reissue",
          "simo": true,
		  "priorPolicyAmountFlag": false,
		  "priorPolicyDateFlag": false
        },
		{
          "ownerRateTypeCode": "NA",
          "description": "N/A",
          "simo": false,
		  "priorPolicyAmountFlag": false,
		  "priorPolicyDateFlag": false
        }
      ],
      "scndLoanRateType": [
        {
          "scndLoanRateTypecode": "SM",
          "description": "Second Mortgage",
          "simo": true,
		  "priorPolicyAmountFlag": false,
		  "priorPolicyDateFlag": false
        }
		
      ]
    },
    {
      "propertyTypecode": "D",
      "description": "Developer",
      "loanRateType": [
        {
          "loanRateTypeCode": "D",
          "description": "Developer",
          "simo": true,
		  "priorPolicyAmountFlag": false,
		  "priorPolicyDateFlag": false
        },
		{
          "loanRateTypeCode": "NA",
          "description": "N/A",
          "simo": false,
		  "priorPolicyAmountFlag": false,
		  "priorPolicyDateFlag": false
        }
      ],
	  "ownerRateType": [
        {
          "ownerRateTypeCode": "D",
          "description": "Developer",
          "simo": true,
		  "priorPolicyAmountFlag": false,
		  "priorPolicyDateFlag": false
        },
		{
          "ownerRateTypeCode": "NA",
          "description": "N/A",
          "simo": false,
		  "priorPolicyAmountFlag": false,
		  "priorPolicyDateFlag": false
        }
      ]
    },
    {
      "propertyTypecode": "B",
      "description": "Builder",
      "loanRateType": [
        {
          "loanRateTypeCode": "B",
          "description": "Builder",
          "simo": true,
		  "priorPolicyAmountFlag": false,
		  "priorPolicyDateFlag": false
        },
		{
          "loanRateTypeCode": "NA",
          "description": "N/A",
          "simo": false,
		  "priorPolicyAmountFlag": false,
		  "priorPolicyDateFlag": false
        }
      ],
	  "ownerRateType": [
        {
          "ownerRateTypeCode": "B",
          "description": "Builder",
          "simo": true,
		  "priorPolicyAmountFlag": false,
		  "priorPolicyDateFlag": false
        },
		{
          "ownerRateTypeCode": "NA",
          "description": "N/A",
          "simo": false,
		  "priorPolicyAmountFlag": false,
		  "priorPolicyDateFlag": false
        }
      ]
    }
  ],
  "endorsement": [
    {
      "endorsementCode": "1",
      "description": "ALTA 1-06 Street Assessment Coverage",
      "endorsementType": "L",
      "proposedRate": null,
	  "propertyTypeList": "",
      "rateTypeList": ""
    },
    {
      "endorsementCode": "10",
      "description": "ALTA 10-06 Assignment",
      "endorsementType": "L",
      "proposedRate": null,
	  "propertyTypeList": "",
      "rateTypeList": ""
    },
    {
      "endorsementCode": "10.1",
      "description": "ALTA 10.1-06 Assignment And Date Down",
      "endorsementType": "L",
      "proposedRate": null,
	  "propertyTypeList": "",
      "rateTypeList": ""
    },
    {
      "endorsementCode": "101.1",
      "description": "CLTA 101.1-06 Mechanics' Lien Owners (N\/C)",
      "endorsementType": "O",
      "proposedRate": null,
	  "propertyTypeList": "",
      "rateTypeList": ""
    },
    {
      "endorsementCode": "101.2",
      "description": "CLTA 101.2-06 Mechanics' Lien Notice of Completion - Lender (N\/C)",
      "endorsementType": "L",
      "proposedRate": null,
	  "propertyTypeList": "",
      "rateTypeList": ""
    },
    {
      "endorsementCode": "101.3",
      "description": "CLTA 101.3-06 Mechanics' Lien No Notice Of Completion - Lender (N\/C)",
      "endorsementType": "L",
      "proposedRate": null,
	  "propertyTypeList": "",
      "rateTypeList": ""
    },
    {
      "endorsementCode": "101.4",
      "description": "CLTA 101.4-06 Mechanics' Lien No Notice Of Completion - Owner (N\/C)",
      "endorsementType": "O",
      "proposedRate": null,
	  "propertyTypeList": "",
      "rateTypeList": ""
    },
    {
      "endorsementCode": "11",
      "description": "ALTA 11-06 Mortgage Modification",
      "endorsementType": "L",
      "proposedRate": null,
	  "propertyTypeList": "",
      "rateTypeList": ""
    },
    {
      "endorsementCode": "11.2",
      "description": "ALTA 11.2 Modification of Mortgage (N\/C)",
      "endorsementType": "L",
      "proposedRate": null,
	  "propertyTypeList": "",
      "rateTypeList": ""
    },
    {
      "endorsementCode": "12",
      "description": "ALTA 12-06 Tie-In Endorsement - Requires Underwriting Approval",
      "endorsementType": "L",
      "proposedRate": null,
	  "propertyTypeList": "M",
      "rateTypeList": ""
    },
    {
      "endorsementCode": "13",
      "description": "ALTA 13-06 Leasehold Owners",
      "endorsementType": "O",
      "proposedRate": null,
	  "propertyTypeList": "",
      "rateTypeList": ""
    },
    {
      "endorsementCode": "13.1",
      "description": "ALTA 13.1-06 Leasehold Lenders",
      "endorsementType": "L",
      "proposedRate": null,
	  "propertyTypeList": "",
      "rateTypeList": ""
    },
    {
      "endorsementCode": "14",
      "description": "ALTA 14-06 Future Advance - Priority",
      "endorsementType": "L",
      "proposedRate": null,
	  "propertyTypeList": "",
      "rateTypeList": ""
    },
    {
      "endorsementCode": "14.1",
      "description": "ALTA 14.1-06 Future Advance - Knowledge",
      "endorsementType": "L",
      "proposedRate": null,
	  "propertyTypeList": "",
      "rateTypeList": ""
    },
    {
      "endorsementCode": "14.2",
      "description": "ALTA 14.2-06 Future Advance - Letter of Credit - Requires Underwriting Approval",
      "endorsementType": "L",
      "proposedRate": null,
	  "propertyTypeList": "",
      "rateTypeList": ""
    },
    {
      "endorsementCode": "14.3",
      "description": "ALTA 14.3-06 Future Advance - Reverse Mortgage",
      "endorsementType": "L",
      "proposedRate": null,
	  "propertyTypeList": "",
      "rateTypeList": ""
    },
    {
      "endorsementCode": "15",
      "description": "ALTA 15.0-06 Non-Imputation - Full Equity Transfer - Requires Underwriting Approval",
      "endorsementType": "L",
      "proposedRate": null,
	  "propertyTypeList": "",
      "rateTypeList": ""
    },
    {
      "endorsementCode": "15.1",
      "description": "ALTA 15.1-06 Non-Imputation - Additional Insured - Requires Underwriting Approval",
      "endorsementType": "",
      "proposedRate": null,
	  "propertyTypeList": "",
      "rateTypeList": ""
    },
    {
      "endorsementCode": "15.2",
      "description": "ALTA 15.2-06 Non-Imputation - Partial Equity Transfer - Requires Underwriting Approval",
      "endorsementType": "L",
      "proposedRate": null,
	  "propertyTypeList": "",
      "rateTypeList": ""
    },
    {
      "endorsementCode": "16",
      "description": "ALTA 16-06 Mezzanine Financing - Requires Underwriting Approval",
      "endorsementType": "L",
      "proposedRate": null,
	  "propertyTypeList": "",
      "rateTypeList": ""
    },
    {
      "endorsementCode": "17",
      "description": "ALTA 17-06 Access And Entry",
      "endorsementType": "",
      "proposedRate": null,
	  "propertyTypeList": "",
      "rateTypeList": ""
    },
    {
      "endorsementCode": "17.1",
      "description": "ALTA 17.1-06 Indirect Access And Entry",
      "endorsementType": "",
      "proposedRate": null,
	  "propertyTypeList": "",
      "rateTypeList": ""
    },
    {
      "endorsementCode": "17.2",
      "description": "ALTA 17.2-06 - Utility Access (N\/C)",
      "endorsementType": "",
      "proposedRate": null,
	  "propertyTypeList": "",
      "rateTypeList": ""
    },
    {
      "endorsementCode": "18",
      "description": "ALTA 18-06 Single Tax Parcel",
      "endorsementType": "",
      "proposedRate": null,
	  "propertyTypeList": "",
      "rateTypeList": ""
    },
    {
      "endorsementCode": "18.1",
      "description": "ALTA 18.1-06 Multiple Tax Parcel",
      "endorsementType": "",
      "proposedRate": null,
	  "propertyTypeList": "",
      "rateTypeList": ""
    },
    {
      "endorsementCode": "19",
      "description": "ALTA 19-06 Contiguity - Single Parcel",
      "endorsementType": "",
      "proposedRate": null,
	  "propertyTypeList": "",
      "rateTypeList": ""
    },
    {
      "endorsementCode": "19.1",
      "description": "ALTA 19.1-06 Contiguity - Multiple Parcel Transactions",
      "endorsementType": "",
      "proposedRate": null,
	  "propertyTypeList": "",
      "rateTypeList": ""
    },
    {
      "endorsementCode": "20",
      "description": "ALTA 20-06 First Loss - Multiple Parcel Transactions - Requires Underwriting Approval",
      "endorsementType": "L",
      "proposedRate": null,
	  "propertyTypeList": "",
      "rateTypeList": ""
    },
    {
      "endorsementCode": "22",
      "description": "ALTA 22-06 Location",
      "endorsementType": "",
      "proposedRate": null,
	  "propertyTypeList": "",
      "rateTypeList": ""
    },
    {
      "endorsementCode": "22.1",
      "description": "ALTA 22.1-06 Location and Map",
      "endorsementType": "",
      "proposedRate": null,
	  "propertyTypeList": "",
      "rateTypeList": ""
    },
    {
      "endorsementCode": "23",
      "description": "ALTA 23-06 Coinsurance - Requires Underwriting Approval",
      "endorsementType": "",
      "proposedRate": null,
	  "propertyTypeList": "",
      "rateTypeList": ""
    },
    {
      "endorsementCode": "24",
      "description": "ALTA 24-06 Doing Business",
      "endorsementType": "L",
      "proposedRate": null,
	  "propertyTypeList": "",
      "rateTypeList": ""
    },
    {
      "endorsementCode": "25",
      "description": "ALTA 25-06 Same As Survey",
      "endorsementType": "",
      "proposedRate": null,
	  "propertyTypeList": "",
      "rateTypeList": ""
    },
    {
      "endorsementCode": "25.1",
      "description": "ALTA 25.1-06 Same As Portion Of Survey",
      "endorsementType": "",
      "proposedRate": null,
	  "propertyTypeList": "",
      "rateTypeList": ""
    },
    {
      "endorsementCode": "26",
      "description": "ALTA 26-06 Subdivision",
      "endorsementType": "",
      "proposedRate": null,
	  "propertyTypeList": "",
      "rateTypeList": ""
    },
    {
      "endorsementCode": "28",
      "description": "ALTA 28-06 Easement- Damage Or Enforced Removal",
      "endorsementType": "",
      "proposedRate": null,
	  "propertyTypeList": "",
      "rateTypeList": ""
    },
    {
      "endorsementCode": "29",
      "description": "ALTA 29-06 Interest Rate Swap",
      "endorsementType": "L",
      "proposedRate": null,
	  "propertyTypeList": "",
      "rateTypeList": ""
    },
    {
      "endorsementCode": "29.1",
      "description": "ALTA 29.1-06 Interest Rate Swap - Additional Interest",
      "endorsementType": "L",
      "proposedRate": null,
	  "propertyTypeList": "",
      "rateTypeList": ""
    },
    {
      "endorsementCode": "3",
      "description": "ALTA 3-06 Zoning - Land Only - Requires Underwriting Approval",
      "endorsementType": "",
      "proposedRate": null,
	  "propertyTypeList": "",
      "rateTypeList": ""
    },
    {
      "endorsementCode": "3.1",
      "description": "ALTA 3.1-06 Zoning - Land And Improvements - Requires Underwriting Approval",
      "endorsementType": "",
      "proposedRate": null,
	  "propertyTypeList": "",
      "rateTypeList": ""
    },
    {
      "endorsementCode": "30",
      "description": "ALTA 30-06 Shared Appreciation - One To Four Family",
      "endorsementType": "L",
      "proposedRate": null,
	  "propertyTypeList": "R",
      "rateTypeList": ""
    },
    {
      "endorsementCode": "31",
      "description": "ALTA 31-06 Severable Improvements - One To Four Family",
      "endorsementType": "",
      "proposedRate": null,
	  "propertyTypeList": "R",
      "rateTypeList": ""
    },
    {
      "endorsementCode": "32",
      "description": "ALTA 32-06 Construction Loan - Loss Of Priority",
      "endorsementType": "L",
      "proposedRate": null,
	  "propertyTypeList": "C",
      "rateTypeList": ""
    },
    {
      "endorsementCode": "32.1",
      "description": "ALTA 32.1-06 Construction Loan - Loss Of Priority - Direct Payment",
      "endorsementType": "L",
      "proposedRate": null,
	  "propertyTypeList": "C",
      "rateTypeList": ""
    },
    {
      "endorsementCode": "33",
      "description": "ALTA 33-06 Disbursement",
      "endorsementType": "L",
      "proposedRate": null,
	  "propertyTypeList": "",
      "rateTypeList": ""
    },
    {
      "endorsementCode": "4",
      "description": "ALTA 4.0-06 Condominium Endorsement",
      "endorsementType": "",
      "proposedRate": null,
	  "propertyTypeList": "",
      "rateTypeList": ""
    },
    {
      "endorsementCode": "4.1",
      "description": "ALTA 4.1-06 Condominium Endorsement",
      "endorsementType": "",
      "proposedRate": null,
	  "propertyTypeList": "",
      "rateTypeList": ""
    },
    {
      "endorsementCode": "5",
      "description": "ALTA 5-06 Pud Endorsement",
      "endorsementType": "L",
      "proposedRate": null,
	  "propertyTypeList": "",
      "rateTypeList": ""
    },
    {
      "endorsementCode": "5.1",
      "description": "ALTA 5.1-06 Pud Endorsement",
      "endorsementType": "",
      "proposedRate": null,
	  "propertyTypeList": "",
      "rateTypeList": ""
    },
    {
      "endorsementCode": "6",
      "description": "ALTA 6-06 Variable Rate Mortgage",
      "endorsementType": "L",
      "proposedRate": null,
	  "propertyTypeList": "",
      "rateTypeList": ""
    },
    {
      "endorsementCode": "6.2",
      "description": "ALTA 6.2-06 Variable Rate Mortgage\/Negative Amortization",
      "endorsementType": "L",
      "proposedRate": null,
	  "propertyTypeList": "",
      "rateTypeList": ""
    },
    {
      "endorsementCode": "7",
      "description": "ALTA 7-06 Manufactured Housing Unit",
      "endorsementType": "",
      "proposedRate": null,
	  "propertyTypeList": "",
      "rateTypeList": ""
    },
    {
      "endorsementCode": "7.1",
      "description": "ALTA 7.1-06 Manufactured Housing Unit-Conversion Loan",
      "endorsementType": "L",
      "proposedRate": null,
	  "propertyTypeList": "",
      "rateTypeList": ""
    },
    {
      "endorsementCode": "7.2",
      "description": "ALTA 7.2-06 Manufactured Housing Unit-Conversion Owner's",
      "endorsementType": "O",
      "proposedRate": null,
	  "propertyTypeList": "",
      "rateTypeList": ""
    },
    {
      "endorsementCode": "8.1",
      "description": "ALTA 8.1-06 Environmental Protection Liens",
      "endorsementType": "L",
      "proposedRate": null,
	  "propertyTypeList": "R",
      "rateTypeList": ""
    },
    {
      "endorsementCode": "8.2",
      "description": "ALTA 8.2-06 Commercial Environmental Lien Protection (N\/C)",
      "endorsementType": "",
      "proposedRate": null,
	  "propertyTypeList": "",
      "rateTypeList": ""
    },
    {
      "endorsementCode": "9",
      "description": "ALTA 9-06 Comprehensive Endorsement",
      "endorsementType": "L",
      "proposedRate": null,
	  "propertyTypeList": "",
      "rateTypeList": ""
    },
    {
      "endorsementCode": "9.1",
      "description": "ALTA 9.1-06 Comprehensive Endorsement - Owner's Policy Unimproved Land",
      "endorsementType": "O",
      "proposedRate": null,
	  "propertyTypeList": "",
      "rateTypeList": ""
    },
    {
      "endorsementCode": "9.2",
      "description": "ALTA 9.2-06 Comprehensive Endorsement - Owner's Policy Improved Land",
      "endorsementType": "O",
      "proposedRate": null,
	  "propertyTypeList": "",
      "rateTypeList": ""
    },
    {
      "endorsementCode": "9.3",
      "description": "ALTA 9.3-06 Comprehensive Endorsement Loan Policy",
      "endorsementType": "L",
      "proposedRate": null,
	  "propertyTypeList": "",
      "rateTypeList": ""
    },
    {
      "endorsementCode": "9.6",
      "description": "ALTA 9.6-06 Private Rights (N\/C)",
      "endorsementType": "L",
      "proposedRate": null,
	  "propertyTypeList": "",
      "rateTypeList": ""
    },
    {
      "endorsementCode": "Correct",
      "description": "Corrective\/Extension Endorsement",
      "endorsementType": "",
      "proposedRate": null,
	  "propertyTypeList": "",
      "rateTypeList": ""
    },
    {
      "endorsementCode": "JR1",
      "description": "ALTA Form JR1 - Junior Loan Policy - Supplemental Coverage - Date Down (10-19-96)",
      "endorsementType": "L",
      "proposedRate": null,
	  "propertyTypeList": "",
      "rateTypeList": "JR"
    },
    {
      "endorsementCode": "JR2",
      "description": "ALTA Form JR2 - Junior Loan Policy - Revolving Credit \/ Variable Rate (10-19-96)",
      "endorsementType": "L",
      "proposedRate": null,
	  "propertyTypeList": "",
      "rateTypeList": "JR"
    },
	{
      "endorsementCode": "MortgageExtension",
      "description": "Assignment Or Extension Of Mortgage Loans",
      "endorsementType": "L",
      "proposedRate": null,
	  "propertyTypeList": "",
      "rateTypeList": ""
    }
  ]
}}
