{"RCUI": {
  "developerComments":[
      {"propertyTypeComments": "Mississippi state have 3 property types residential, multifamily and construction. Each property type have its loan rate types,owner rate types and second loan rate types."
	  },
	  {"loanRateTypeComments": "Consist, list of valid rate types of loan policy for residential property in Mississippi state. The simo check indicates if ratetype is valid for simultaneous use-case. If simo is true then rate type occur as simo as well as standalone, if simo is false then rate type occur only an standalone and if simo is null then rate type will occur only as simo. priorPolicyAmountFlag indicates whether Prior Policy Amount fill-in is to enable on UI. priorPolicyDateFlag indicates whether Effective Date fill-in is to enable on UI."
	  },
	  {"ownerRateTypeComments": "Consists, list of valid rate types of owner policy for residential property in Mississippi state. The simo check indicates if ratetype is valid for simultaneous use-case. If simo is true then rate type occur as simo as well as standalone, if simo is false then rate type occur only an standalone and if simo is null then rate type will occur only as simo. priorPolicyAmountFlag indicates whether Prior Policy Amount fill-in is to enable on UI. priorPolicyDateFlag indicates whether Effective Date fill-in is to enable on UI."
	  },
	  {"scndLoanRateTypeComments": "Consist, list of valid rate types of Second loan policy for residential property in Mississippi state. The simo check indicates if ratetype is valid for simultaneous use-case. If simo is true then rate type occur as simo as well as standalone, if simo is false then rate type occur only an standalone and if simo is null then rate type will occur only as simo. priorPolicyAmountFlag indicates whether Prior Policy Amount fill-in is to enable on UI. priorPolicyDateFlag indicates whether Effective Date fill-in is to enable on UI."
	  },
	  {"endorsementComments": "Consists, list of valid endorsements in Mississippi state. The endorsementType indicates whether the endorsement is for loan(L), owner(O) or both(blank). ProposedRate indicates rate for endorsement specified by agent. PropertyTypeList indicates list of property type for which endorsement is valid if blank then endorsement is valid for all property type.RateTypeList indicates list of rate type for which endorsement is valid if blank then endorsement is valid for all rate type."
	  }], 
  "proposedRateConfig": [
    {
	  "showProposedRateFlag": false
	}
	],
  "propertyType": [
    {
      "propertyTypecode": "R",
      "description": "1 to 4 Family Residential",
      "loanRateType": [
        {
          "loanRateTypeCode": "O",
          "description": "Original\/ShortForm",
          "simo": true,
		  "priorPolicyAmountFlag": false,
		  "priorPolicyDateFlag": false
        },
		{
          "loanRateTypeCode": "Re",
          "description": "Reissue",
          "simo": true,
		  "priorPolicyAmountFlag": true,
		  "priorPolicyDateFlag": false
        },
        {
          "loanRateTypeCode": "JR",
          "description": "Jr. Limited Coverage",
          "simo": false,
		  "priorPolicyAmountFlag": false,
		  "priorPolicyDateFlag": false
        },
        {
          "loanRateTypeCode": "SM",
          "description": "Second Mortgage",
          "simo": false,
		  "priorPolicyAmountFlag": false,
		  "priorPolicyDateFlag": false
        },
        {
          "loanRateTypeCode": "SMR",
          "description": "Second Mortgage Revolving",
          "simo": false,
		  "priorPolicyAmountFlag": false,
		  "priorPolicyDateFlag": false
        },
        {
          "loanRateTypeCode": "E",
          "description": "Expanded",
          "simo": true,
		  "priorPolicyAmountFlag": false,
		  "priorPolicyDateFlag": false
        },  
        {
          "loanRateTypeCode": "MM",
          "description": "Modification/Extension Mortgage",
          "simo": false,
		  "priorPolicyAmountFlag": false,
		  "priorPolicyDateFlag": false
        },  		
        {
          "loanRateTypeCode": "ERe",
          "description": "Expanded Reissue",
          "simo": false,
		  "priorPolicyAmountFlag": true,
		  "priorPolicyDateFlag": false
        },
		{
          "loanRateTypeCode": "FMR",
          "description": "First Mortgage Revolving",
          "simo": null,
		  "priorPolicyAmountFlag": false,
		  "priorPolicyDateFlag": false
        },
		{
          "loanRateTypeCode": "NA",
          "description": "N/A",
          "simo": false,
		  "priorPolicyAmountFlag": false,
		  "priorPolicyDateFlag": false
        }
      ],
      "ownerRateType": [
        {
          "ownerRateTypeCode": "O",
          "description": "Original",
          "simo": true,
		  "priorPolicyAmountFlag": false,
		  "priorPolicyDateFlag": false
        },
        {
          "ownerRateTypeCode": "Re",
          "description": "Reissue",
          "simo": false,
		  "priorPolicyAmountFlag": true,
		  "priorPolicyDateFlag": false
        },
        {
          "ownerRateTypeCode": "H",
          "description": "Homeowners",
          "simo": false,
		  "priorPolicyAmountFlag": false,
		  "priorPolicyDateFlag": false
        },
        {
          "ownerRateTypeCode": "HRe",
          "description": "Homeowners Reissue",
          "simo": false,
		  "priorPolicyAmountFlag": true,
		  "priorPolicyDateFlag": false
        },
		{
          "ownerRateTypeCode": "NA",
          "description": "N/A",
          "simo": false,
		  "priorPolicyAmountFlag": false,
		  "priorPolicyDateFlag": false
        }
      ],
      "scndLoanRateType": [
        {
          "scndLoanRateTypecode": "SM",
          "description": "Second Mortgage",
          "simo": true,
		  "priorPolicyAmountFlag": false,
		  "priorPolicyDateFlag": false
        },
		{
          "scndLoanRateTypecode": "SMR",
          "description": "Second Mortgage Revolving",
          "simo": true,
		  "priorPolicyAmountFlag": false,
		  "priorPolicyDateFlag": false
        },
        {
          "scndLoanRateTypecode": "JR",
          "description": "Jr. Limited Coverage",
          "simo": true,
		  "priorPolicyAmountFlag": false,
		  "priorPolicyDateFlag": false
        },
		{
          "scndLoanRateTypecode": "NA",
          "description": "N/A",
          "simo": false,
		  "priorPolicyAmountFlag": false,
		  "priorPolicyDateFlag": false
        }
      ]
    },
    {
      "propertyTypecode": "M",
      "description": "Multi-Family Residential\/Commercial",
      "loanRateType": [
        {
          "loanRateTypeCode": "O",
          "description": "Loan Standard",
          "simo": true,
		  "priorPolicyAmountFlag": false,
		  "priorPolicyDateFlag": false
        },        
        {
          "loanRateTypeCode": "Re",
          "description": "Reissue",
          "simo": true,
		  "priorPolicyAmountFlag": true,
		  "priorPolicyDateFlag": false
        },
        {
          "loanRateTypeCode": "SM",
          "description": "Second Mortgage",
          "simo": false,
		  "priorPolicyAmountFlag": false,
		  "priorPolicyDateFlag": false
        },
        {
          "loanRateTypeCode": "SMR",
          "description": "Second Mortgage Revolving",
          "simo": false,
		  "priorPolicyAmountFlag": false,
		  "priorPolicyDateFlag": false
        },
        {
          "loanRateTypeCode": "SMRRe",
          "description": "Second Mortgage Revolving Reissue",
          "simo": false,
		  "priorPolicyAmountFlag": true,
		  "priorPolicyDateFlag": false
        },        
        {
          "loanRateTypeCode": "SMRe",
          "description": "Second Mortgage Reissue",
          "simo": false,
		  "priorPolicyAmountFlag": true,
		  "priorPolicyDateFlag": false
        },
		{
          "loanRateTypeCode": "MM",
          "description": "Modification/Extension Mortgage",
          "simo": false,
		  "priorPolicyAmountFlag": false,
		  "priorPolicyDateFlag": false
        },
		{
          "loanRateTypeCode": "FMR",
          "description": "First Mortgage Revolving",
          "simo": null,
		  "priorPolicyAmountFlag": false,
		  "priorPolicyDateFlag": false
        },
		{
          "loanRateTypeCode": "NA",
          "description": "N/A",
          "simo": false,
		  "priorPolicyAmountFlag": false,
		  "priorPolicyDateFlag": false
        }
      ],
      "ownerRateType": [
        {
          "ownerRateTypeCode": "O",
          "description": "Original",
          "simo": true,
		  "priorPolicyAmountFlag": false,
		  "priorPolicyDateFlag": false
        },
        {
          "ownerRateTypeCode": "Re",
          "description": "Reissue",
          "simo": false,
		  "priorPolicyAmountFlag": true,
		  "priorPolicyDateFlag": false
        },
		{
          "ownerRateTypeCode": "NA",
          "description": "N/A",
          "simo": false,
		  "priorPolicyAmountFlag": false,
		  "priorPolicyDateFlag": false
        }
      ],
      "scndLoanRateType": [
        {
          "scndLoanRateTypecode": "SM",
          "description": "Second Mortgage",
          "simo": true,
		  "priorPolicyAmountFlag": false,
		  "priorPolicyDateFlag": false
        },
		{
          "scndLoanRateTypecode": "SMR",
          "description": "Second Mortgage Revolving",
          "simo": true,
		  "priorPolicyAmountFlag": false,
		  "priorPolicyDateFlag": false
        },
		{
          "scndLoanRateTypecode": "NA",
          "description": "N/A",
          "simo": false,
		  "priorPolicyAmountFlag": false,
		  "priorPolicyDateFlag": false
        }
      ]
    },
    {
      "propertyTypecode": "C",
      "description": "Construction",
      "loanRateType": [
        {
          "loanRateTypeCode": "C",
          "description": "Construction",
          "simo": false,
		  "priorPolicyAmountFlag": false,
		  "priorPolicyDateFlag": false
        },
		{
          "loanRateTypeCode": "PC",
          "description": "Post Construction",
          "simo": false,
		  "priorPolicyAmountFlag": false,
		  "priorPolicyDateFlag": false
        },
		{
          "loanRateTypeCode": "NA",
          "description": "N/A",
          "simo": false,
		  "priorPolicyAmountFlag": false,
		  "priorPolicyDateFlag": false
        }
      ]
    }
  ],
  "endorsement": [
    {
      "endorsementCode": "1",
      "description": "ALTA 1 STREET ASSESSMENTS ENDORSEMENT",
      "endorsementType": "L",
	  "proposedRate": null,
	  "propertyTypeList":"",
	  "rateTypeList":""
    },	
    {
      "endorsementCode": "3",
      "description": "ALTA 3 ZONING - UNIMPROVED LAND ENDORSEMENT",
      "endorsementType": "",
	  "proposedRate": null,
	  "propertyTypeList":"",
	  "rateTypeList":""
    },
    {
      "endorsementCode": "3.1",
      "description": "ALTA 3.1 ZONING - COMPLETED STRUCTURE ENDORSEMENT",
      "endorsementType": "",
	  "proposedRate": null,
	  "propertyTypeList":"",
	  "rateTypeList":""
    }, 
    {
      "endorsementCode": "4",
      "description": "ALTA 4 CONDOMINIUM ENDORSEMENT",
      "endorsementType": "",
	  "proposedRate": null,
	  "propertyTypeList":"",
	  "rateTypeList":""
    },	
    {
      "endorsementCode": "4.1",
      "description": "ALTA 4.1 CONDOMINIUM ENDORSEMENT",
      "endorsementType": "",
	  "proposedRate": null,
	  "propertyTypeList":"",
	  "rateTypeList":""
    },
	{
      "endorsementCode": "5",
      "description": "ALTA 5 PUD ENDORSEMENT ALL ASSESSMENT LIENS",
      "endorsementType": "",
	  "proposedRate": null,
	  "propertyTypeList":"",
	  "rateTypeList":""
    },
    {
      "endorsementCode": "5.1",
      "description": "ALTA 5.1 PUD ENDORSEMENT",
      "endorsementType": "",
	  "proposedRate": null,
	  "propertyTypeList":"",
	  "rateTypeList":""
    },
    {
      "endorsementCode": "6.1",
      "description": "ALTA 6.1 VARIABLE RATE MORTGAGE ENDORSEMENT",
      "endorsementType": "L",
	  "proposedRate": null,
	  "propertyTypeList":"",
	  "rateTypeList":""
    },
    {
      "endorsementCode": "6.2",
      "description": "ALTA 6.2 VARIABLE RATE MORTGAGE - NEGATIVE AMORTIZATION ENDORSEMENT",
      "endorsementType": "L",
	  "proposedRate": null,
	  "propertyTypeList":"",
	  "rateTypeList":""
    },
    {
      "endorsementCode": "7",
      "description": "ALTA 7 MANUFACTURED HOUSING UNIT ENDORSEMENT",
      "endorsementType": "L",
	  "proposedRate": null,
	  "propertyTypeList":"",
	  "rateTypeList":""
    },
    {
      "endorsementCode": "7.1",
      "description": "ALTA 7.1 MANUFACTURED HOUSING - CONVERSION",
      "endorsementType": "L",
	  "proposedRate": null,
	  "propertyTypeList":"",
	  "rateTypeList":""
    },
    {
      "endorsementCode": "7.2",
      "description": "ALTA 7.2 MANUFACTURED HOUSING - CONVERSION",
      "endorsementType": "O",
	  "proposedRate": null,
	  "propertyTypeList":"",
	  "rateTypeList":""
    },
    {
      "endorsementCode": "8.1",
      "description": "ALTA 8.1 ENVIRONMENTAL PROTECTION LIEN ENDORSEMENT",
      "endorsementType": "L",
	  "proposedRate": null,
	  "propertyTypeList":"",
	  "rateTypeList":""
    },
    {
      "endorsementCode": "8.2",
      "description": "ALTA 8.2 ENVIRONMENTAL PROTECTION LIEN ENDORSEMENT - COMMERICAL PROPERTY",
      "endorsementType": "",
	  "proposedRate": null,
	  "propertyTypeList":"",
	  "rateTypeList":""
    },
    {
      "endorsementCode": "9",
      "description": "ALTA 9 RESTRICTIONS, ENCROACHMENTS, MINERALS - LOAN POLICY ENDORSEMENT",
      "endorsementType": "L",
	  "proposedRate": null,
	  "propertyTypeList":"",
	  "rateTypeList":""
    },
    {
      "endorsementCode": "9.1",
      "description": "ALTA 9.1 COVENANTS, CONDITIONS & RESTRICTIONS-UNIMPROVED LAND-OWNERS POLICY  ENDORSEMENT",
      "endorsementType": "O",
	  "proposedRate": null,
	  "propertyTypeList":"",
	  "rateTypeList":""
    },
    {
      "endorsementCode": "9.2",
      "description": "ALTA 9.2 COVENANTS, CONDITIONS & RESTRICTIONS-IMPROVED LAND-OWNERS POLICY  ENDORSEMENT",
      "endorsementType": "O",
	  "proposedRate": null,
	  "propertyTypeList":"",
	  "rateTypeList":""
    },
    {
      "endorsementCode": "9.3",
      "description": "ALTA 9.3 COVENANTS, CONDITIONS & RESTRICTIONS - LOAN POLICY  ENDORSEMENT",
      "endorsementType": "L",
	  "proposedRate": null,
	  "propertyTypeList":"",
	  "rateTypeList":""
    },
    {
      "endorsementCode": "10",
      "description": "ALTA 10 ASSIGNMENT ENDORSEMENT",
      "endorsementType": "L",
	  "proposedRate": null,
	  "propertyTypeList":"",
	  "rateTypeList":""
    },
    {
      "endorsementCode": "10.1",
      "description": "ALTA 10.1 ASSIGNMENT AND DATEDOWN ENDORSEMENT",
      "endorsementType": "L",
	  "proposedRate": null,
	  "propertyTypeList":"",
	  "rateTypeList":""
    },
    {
      "endorsementCode": "11",
      "description": "ALTA 11 MORTGAGE MODIFICATION ENDORSEMENT",
      "endorsementType": "L",
	  "proposedRate": null,
	  "propertyTypeList":"",
	  "rateTypeList":""
    },
    {
      "endorsementCode": "11.1",
      "description": "ALTA 11.1 MORTGAGE MODIFICATION WITH SUBORDINATION ENDORSEMENT",
      "endorsementType": "L",
	  "proposedRate": null,
	  "propertyTypeList":"",
	  "rateTypeList":""
    },    
    {
      "endorsementCode": "12",
      "description": "ALTA 12 AGGREGATION ENDORSEMENT",
      "endorsementType": "L",
	  "proposedRate": null,
	  "propertyTypeList":"",
	  "rateTypeList":""
    },    
    {
      "endorsementCode": "13",
      "description": "ALTA 13 LEASEHOLD-OWNER'S ENDORSEMENT",
      "endorsementType": "O",
	  "proposedRate": null,
	  "propertyTypeList":"",
	  "rateTypeList":""
    },
    {
      "endorsementCode": "13.1",
      "description": "ALTA 13.1 LEASEHOLD-LENDERS ENDORSEMENT",
      "endorsementType": "L",
	  "proposedRate": null,
	  "propertyTypeList":"",
	  "rateTypeList":""
    },
    {
      "endorsementCode": "14",
      "description": "ALTA 14 FUTURE ADVANCE - PRIORITY ENDORSEMENT",
      "endorsementType": "L",
	  "proposedRate": null,
	  "propertyTypeList":"",
	  "rateTypeList":""
    },
    {
      "endorsementCode": "14.1",
      "description": "ALTA 14.1 FUTURE ADVANCE - KNOWLEDGE ENDORSEMENT",
      "endorsementType": "L",
	  "proposedRate": null,
	  "propertyTypeList":"",
	  "rateTypeList":""
    },
    {
      "endorsementCode": "14.2",
      "description": "ALTA 14.2 FUTURE ADVANCE - LETTER OF CREDIT ENDORSEMENT",
      "endorsementType": "L",
	  "proposedRate": null,
	  "propertyTypeList":"",
	  "rateTypeList":""
    },
    {
      "endorsementCode": "14.3",
      "description": "ALTA 14.3 FUTURE ADVANCE - REVERSE MORTGAGE ENDORSEMENT",
      "endorsementType": "L",
	  "proposedRate": null,
	  "propertyTypeList":"",
	  "rateTypeList":""
    },
    {
      "endorsementCode": "15",
      "description": "ALTA 15 NON-IMPUTATION ENDORSEMENT - FULL EQUITY TRANSFER - UNDERWRITING APPROVAL REQUIRED",
      "endorsementType": "O",
	  "proposedRate": null,
	  "propertyTypeList":"",
	  "rateTypeList":""
    },
    {
      "endorsementCode": "15.1",
      "description": "ALTA 15.1 NON-IMPUTATION ENDORSEMENT - ADDITIONAL INSURED",
      "endorsementType": "O",
	  "proposedRate": null,
	  "propertyTypeList":"",
	  "rateTypeList":""
    },
    {
      "endorsementCode": "15.2",
      "description": "ALTA 15.2 NON-IMPUTATION - PARTIAL EQUITY TRANSFER ENDORSEMENT",
      "endorsementType": "O",
	  "proposedRate": null,
	  "propertyTypeList":"",
	  "rateTypeList":""
    },
    {
      "endorsementCode": "16",
      "description": "ALTA 16 MEZZANINE FINANCE ENDORSEMENT REQUIRES UNDERWRITING APPROVAL",
      "endorsementType": "",
	  "proposedRate": null,
	  "propertyTypeList":"",
	  "rateTypeList":""
    },
    {
      "endorsementCode": "17",
      "description": "ALTA 17 ACCESS AND ENTRY ENDORSEMENT",
      "endorsementType": "",
	  "proposedRate": null,
	  "propertyTypeList":"",
	  "rateTypeList":""
    },
    {
      "endorsementCode": "17.1",
      "description": "ALTA 17.1 INDIRECT ACCESS & ENTRY ENDORSEMENT",
      "endorsementType": "",
	  "proposedRate": null,
	  "propertyTypeList":"",
	  "rateTypeList":""
    },
    {
      "endorsementCode": "17.2",
      "description": "ALTA 17.2 UTILITY ACCESS ENDORSEMENT",
      "endorsementType": "",
	  "proposedRate": null,
	  "propertyTypeList":"",
	  "rateTypeList":""
    },
    {
      "endorsementCode": "18",
      "description": "ALTA 18 SINGLE TAX PARCEL ENDORSEMENT",
      "endorsementType": "",
	  "proposedRate": null,
	  "propertyTypeList":"",
	  "rateTypeList":""
    },
    {
      "endorsementCode": "18.1",
      "description": "ALTA 18.1 MULTIPLE TAX PARCEL ENDORSEMENT",
      "endorsementType": "",
	  "proposedRate": null,
	  "propertyTypeList":"",
	  "rateTypeList":""
    },
    {
      "endorsementCode": "19",
      "description": "ALTA 19 CONTIGUITY - MULTIPLE PARCELS ENDORSEMENT",
      "endorsementType": "",
	  "proposedRate": null,
	  "propertyTypeList":"",
	  "rateTypeList":""
    },
    {
      "endorsementCode": "19.1",
      "description": "ALTA 19.1 CONTIGUITY - SINGLE PARCEL ENDORSEMENT",
      "endorsementType": "",
	  "proposedRate": null,
	  "propertyTypeList":"",
	  "rateTypeList":""
    },
    {
      "endorsementCode": "20",
      "description": "ALTA 20 FIRST LOSS - MULTIPLE PARCEL TRANSACTIONS ENDORSEMENT",
      "endorsementType": "L",
	  "proposedRate": null,
	  "propertyTypeList":"",
	  "rateTypeList":""
    },
    {
      "endorsementCode": "22",
      "description": "ALTA 22 LOCATION ENDORSEMENT",
      "endorsementType": "",
	  "proposedRate": null,
	  "propertyTypeList":"",
	  "rateTypeList":""
    },
    {
      "endorsementCode": "22.1",
      "description": "ALTA 22.1 LOCATION & MAP ENDORSEMENT",
      "endorsementType": "",
	  "proposedRate": null,
	  "propertyTypeList":"",
	  "rateTypeList":""
    },
    {
      "endorsementCode": "23",
      "description": "ALTA 23 CO-INSURANCE - SINGLE PARCEL - ENDORSEMENT UNDERWRITING APPROVAL REQUIRED",
      "endorsementType": "",
	  "proposedRate": null,
	  "propertyTypeList":"",
	  "rateTypeList":""
    },
    {
      "endorsementCode": "24",
      "description": "ALTA 24 DOING BUSINESS AS ENDORSEMENT",
      "endorsementType": "L",
	  "proposedRate": null,
	  "propertyTypeList":"",
	  "rateTypeList":""
    },
    {
      "endorsementCode": "25",
      "description": "ALTA 25 SAME AS SURVEY ENDORSEMENT",
      "endorsementType": "",
	  "proposedRate": null,
	  "propertyTypeList":"",
	  "rateTypeList":""
    },
    {
      "endorsementCode": "25.1",
      "description": "ALTA 25.1 SAME AS PORTION OF SURVEY ENDORSEMENT",
      "endorsementType": "",
	  "proposedRate": null,
	  "propertyTypeList":"",
	  "rateTypeList":""
    },
    {
      "endorsementCode": "26",
      "description": "ALTA 26 SUBDIVISION ENDORSEMENT",
      "endorsementType": "",
	  "proposedRate": null,
	  "propertyTypeList":"",
	  "rateTypeList":""
    },
    {
      "endorsementCode": "27",
      "description": "ALTA 27 USURY ENDORSEMENT",
      "endorsementType": "L",
	  "proposedRate": null,
	  "propertyTypeList":"",
	  "rateTypeList":""
    },
    {
      "endorsementCode": "28",
      "description": "ALTA 28 EASEMENT-DAMAGE OR ENFORCED REMOVAL ENDORSEMENT",
      "endorsementType": "",
	  "proposedRate": null,
	  "propertyTypeList":"",
	  "rateTypeList":""
    },    
    {
      "endorsementCode": "29",
      "description": "ALTA 29 INTEREST RATE SWAP ENDORSEMENT - DIRECT OBLIGATION",
      "endorsementType": "L",
	  "proposedRate": null,
	  "propertyTypeList":"",
	  "rateTypeList":""
    },
    {
      "endorsementCode": "29.1",
      "description": "ALTA 29.1 INTEREST RATE SWAP ENDORSEMENT - ADDITIONAL INTEREST",
      "endorsementType": "L",
	  "proposedRate": null,
	  "propertyTypeList":"",
	  "rateTypeList":""
    },
	{
      "endorsementCode": "29.2",
      "description": "ALTA 29.2 INTEREST RATE SWAP ENDORSEMENT - DIRECT OBLIGATION",
      "endorsementType": "L",
	  "proposedRate": null,
	  "propertyTypeList":"",
	  "rateTypeList":""
    },
	{
      "endorsementCode": "29.3",
      "description": "ALTA 29.3 INTEREST RATE SWAP ENDORSEMENT - ADDITIONAL INTEREST",
      "endorsementType": "L",
	  "proposedRate": null,
	  "propertyTypeList":"",
	  "rateTypeList":""
    },
    {
      "endorsementCode": "30",
      "description": "ALTA 30 SHARED APPRECIATION MORTGAGE ENDORSEMENT",
      "endorsementType": "L",
	  "proposedRate": null,
	  "propertyTypeList":"",
	  "rateTypeList":""
    },
    {
      "endorsementCode": "30.1",
      "description": "ALTA 30.1 COMMERCIAL PARTICIPATION INTEREST ENDORSEMENT",
      "endorsementType": "L",
	  "proposedRate": null,
	  "propertyTypeList":"",
	  "rateTypeList":""
    },
    {
      "endorsementCode": "31",
      "description": "ALTA 31 SEVERABLE IMPROVEMENTS",
      "endorsementType": "L",
	  "proposedRate": null,
	  "propertyTypeList":"",
	  "rateTypeList":""
    },
    {
      "endorsementCode": "32",
      "description": "ALTA 32 CONSTRUCTION LOAN - PENDING DISBURSEMENT ENDORSEMENT",
      "endorsementType": "L",
	  "proposedRate": null,
	  "propertyTypeList":"",
	  "rateTypeList":""
    },
    {
      "endorsementCode": "32.1",
      "description": "ALTA 32.1 CONSTRUCTION LOAN - LOSS OF PRIORITY - DIRECT PAYMENT ENDORSEMENT",
      "endorsementType": "L",
	  "proposedRate": null,
	  "propertyTypeList":"",
	  "rateTypeList":""
    },    
    {
      "endorsementCode": "33",
      "description": "ALTA 33 DISBURSEMENT ENDORSEMENT",
      "endorsementType": "L",
	  "proposedRate": null,
	  "propertyTypeList":"",
	  "rateTypeList":""
    },
    {
      "endorsementCode": "34",
      "description": "ALTA 34 IDENTIFIED RISK COVERAGE ENDORSEMENT",
      "endorsementType": "",
	  "proposedRate": null,
	  "propertyTypeList":"",
	  "rateTypeList":""
    },    
    {
      "endorsementCode": "JR1",
      "description": "ALTA JR1 JUNIOR LOAN - DATE DOWN ENDORSEMENT",
      "endorsementType": "L",
	  "proposedRate": null,
	  "propertyTypeList":"",
	  "rateTypeList":""
    },
    {
      "endorsementCode": "JR2",
      "description": "ALTA JR2 JUNIOR LOAN - REVOLVING CREDIT\/VARIABLE RATE ENDORSEMENT",
      "endorsementType": "L",
	  "proposedRate": null,
	  "propertyTypeList":"",
	  "rateTypeList":""
    },    
    {
      "endorsementCode": "GE3",
      "description": "GE-3(ANTIC) POLICY MODIFICATION (CORRECTION) ENDORSEMENT",
      "endorsementType": "",
	  "proposedRate": null,
	  "propertyTypeList":"",
	  "rateTypeList":""
    }    
  ]
}}
