{"RCUI": {
  "developerComments":[
      {"propertyTypeComments": "New Mexico state have 1 property type residential. Each property type have its loan rate types and owner rate types."
	  },
	  {"loanRateTypeComments": "Consist, list of valid rate types of loan policy for residential property in New Mexico state. The simo checks indicates if ratetype is valid for simultaneous use-case."
	  },
	  {"ownerRateTypeComments": "Consist, list of valid rate types of owner policy for residential property in New Mexico state. The simo checks indicates if ratetype is valid for simultaneous use-case."
	  },
	  {"endorsementComments": "Consist, list of valid endorsements in New Mexico state. The endorsementType indicates whether the endorsement is for loan(L), owner(O) or both(blank). ProposedRate indicates rate for endorsement specified by agent. PropertyTypeList indicates list of property type for which endorsement is valid if blank then endorsement is valid for all property type.RateTypeList indicates list of rate type for which endorsement is valid if blank then endorsement is valid for all rate type."}],
  "proposedRateConfig": [
    {
	  "showProposedRateFlag": true
	}
	],
  "propertyType": [
    {
      "propertyTypecode": "R",
      "description": "1 to 4 Family Residential",
      "loanRateType": [
        {
          "loanRateTypeCode": "LO",
          "description": "Loan \/ Short Form Original",
          "simo": true,
		      "priorPolicyAmountFlag": false,
		      "priorPolicyDateFlag": false
        },      
		   {
          "loanRateTypeCode": "SR",
          "description": "Substitution-Rate",
          "simo": false,
		      "priorPolicyAmountFlag": false,
		      "priorPolicyDateFlag": true
        },
        {
          "loanRateTypeCode": "RL",
          "description": "Replacement Loan Policy",
          "simo": false,
		      "priorPolicyAmountFlag": false,
		      "priorPolicyDateFlag": false
        },
        {
          "loanRateTypeCode": "CL",
          "description": "Two-Year Claims Made Limitation Loan Policy",
          "simo": false,
		      "priorPolicyAmountFlag": false,
		      "priorPolicyDateFlag": false
        },
    		{
          "loanRateTypeCode": "PF",
          "description": "Limited Pre-Foreclosure",
          "simo": false,
		      "priorPolicyAmountFlag": false,
		      "priorPolicyDateFlag": false
        },
        {
          "loanRateTypeCode": "JR",
          "description": "Limited Coverage Junior Loan Policy ALTA",
          "simo": true,
		      "priorPolicyAmountFlag": false,
		      "priorPolicyDateFlag": false
        },
        {
          "loanRateTypeCode": "JR1",
          "description": "Limited Coverage Modification Policy ",
          "simo": false,
		      "priorPolicyAmountFlag": false,
		      "priorPolicyDateFlag": false
        },
		   {
          "loanRateTypeCode": "NA",
          "description": "N/A",
          "simo": false,
		      "priorPolicyAmountFlag": false,
		      "priorPolicyDateFlag": false
        }        
      ],
      "ownerRateType": [
        {
          "ownerRateTypeCode": "O",
          "description": "Owner's Original",
          "simo": true,
		      "priorPolicyAmountFlag": false,
		      "priorPolicyDateFlag": false
        },
        {
          "ownerRateTypeCode": "AO",
          "description": "U.S ALTA Original",
          "simo": false,
		      "priorPolicyAmountFlag": false,
		      "priorPolicyDateFlag": false
        },
        {
          "ownerRateTypeCode": "Re",
          "description": "Owner's Original Reissue",
          "simo": true,
		      "priorPolicyAmountFlag": false,
		      "priorPolicyDateFlag": true
        },
        {
          "ownerRateTypeCode": "AF",
          "description": "Owners AfterForeclosure",
          "simo": false,
		      "priorPolicyAmountFlag": false,
		      "priorPolicyDateFlag": false
        },
        {
          "ownerRateTypeCode": "TF",
          "description": "Owners TerminatedForeclosure",
          "simo": false,
		      "priorPolicyAmountFlag": false,
		      "priorPolicyDateFlag": false
        },
        {
          "ownerRateTypeCode": "RO",
          "description": "Replacement Owner Policy",
          "simo": false,
		      "priorPolicyAmountFlag": false,
		      "priorPolicyDateFlag": false
        },
	    	{
          "ownerRateTypeCode": "NA",
          "description": "N/A",
          "simo": false,
		      "priorPolicyAmountFlag": false,
		      "priorPolicyDateFlag": false
        }
      ],
      "scndLoanRateType": [
        {
          "scndLoanRateTypecode": "SM",
          "description": "Second Mortgage",
          "simo": true,
          "priorPolicyAmountFlag": false,
          "priorPolicyDateFlag": false
        },
        {
          "scndLoanRateTypecode": "NA",
          "description": "N/A",
          "simo": false,
          "priorPolicyAmountFlag": false,
          "priorPolicyDateFlag": false
        }
      ]     
    }  
  ],
  "endorsement": [
    {
      "endorsementCode": "3",
      "description": "NM FORM 3 - ABSTRACT RETIREMENT CREDIT",
      "endorsementType": "O",
      "proposedRate": null,
      "propertyTypeList": "",
      "rateTypeList": ""
    },
    {
      "endorsementCode": "4",
      "description": "NM FORM 4 - LAON POLICY - MECHANICS LIEN COVERAGE WITH EVIDENCE OF PRIORITY(NO BROKEN LIEN PRIORITY)",
      "endorsementType": "L",
      "proposedRate": null,
      "propertyTypeList": "",
      "rateTypeList": ""
    },
    {
      "endorsementCode": "5",
      "description": "NM FORM 5 - LOAN POLICY - MECHANICS LIEN COVERAGE WITHOUT EVIDENCE OF PRIORITY(BROKEN LIEN PRIORITY)",
      "endorsementType": "",
      "proposedRate": null,
      "propertyTypeList": "",
      "rateTypeList": ""
    },
    {
      "endorsementCode": "8",
      "description": "NM FORM 8 - SURVEY COVERGAE - OWNER POLICY",
      "endorsementType": "",
      "proposedRate": null,
      "propertyTypeList": "",
      "rateTypeList": ""
    },
    {
      "endorsementCode": "9",
      "description": "NM FORM 9 - SURVEY COVERGAE - LOAN POLICY",
      "endorsementType": "",
      "proposedRate": null,
      "propertyTypeList": "",
      "rateTypeList": ""
    },
    {
      "endorsementCode": "1P",
      "description": "NM FORM 1P - OWNER PRO FORMA POLICY",
      "endorsementType": "O",
      "proposedRate": null,
      "propertyTypeList": "",
      "rateTypeList": ""
    },
    {
      "endorsementCode": "2P",
      "description": "NM FORM 1P - LAON PRO FORMA POLICY",
      "endorsementType": "L",
      "proposedRate": null,
      "propertyTypeList": "",
      "rateTypeList": ""
    },
    {
      "endorsementCode": "10",
      "description": "NM FORM 10 - FACULTATIVE REINSURANCE AGREEMENT",
      "endorsementType": "",
      "proposedRate": null,
      "propertyTypeList": "",
      "rateTypeList": ""
    },
    {
      "endorsementCode": "11",
      "description": "NM FORM 11 - MULTIPURPOSE ENDORSEMENT - UNPAID ASSESSMENTS (ALTA 5.1-06)",
      "endorsementType": "",
      "proposedRate": null,
      "propertyTypeList": "",
      "rateTypeList": ""
    },
    {
      "endorsementCode": "12",
      "description": "NM FORM 12 - CONDOMINIUM ENDORSEMENT ASSESSMENTS (ALTA 4-06)",
      "endorsementType": "L",
      "proposedRate": null,
      "propertyTypeList": "",
      "rateTypeList": ""
    },
    {
      "endorsementCode": "13",
      "description": "NM FORM 13 - PLANNED UNIT DEVELOPMENT ENDORSEMENT - ALL ASSESSMENTS (ALTA 5-06)",
      "endorsementType": "",
      "proposedRate": null,
      "propertyTypeList": "",
      "rateTypeList": ""
    },
    {
      "endorsementCode": "13.1",
      "description": "NM FORM 13.1 - PLANNED UNIT DEVELOPMENT ENDORSEMENT - UNPAID ASSESSMENTS (ALTA 5.1-06)",
      "endorsementType": "O",
      "proposedRate": null,
      "propertyTypeList": "",
      "rateTypeList": ""
    },
    {
      "endorsementCode": "14",
      "description": "NM FORM 14 - VARIABLE RATE MORTGAGE ENDORSEMENT (ALTA 6-06)",
      "endorsementType": "L",
      "proposedRate": null,
      "propertyTypeList": "",
      "rateTypeList": ""
    },
    {
      "endorsementCode": "15",
      "description": "NM FORM 15 - VARIABLE RATE MORTGAGE ENDORSEMENT NEGATIVE AMORTIZATION (ALTA 6.2-06)",
      "endorsementType": "L",
      "proposedRate": null,
      "propertyTypeList": "",
      "rateTypeList": ""
    },
    {
      "endorsementCode": "16",
      "description": "NM FORM 16 - MANUFACTURED HOUSING UNIT ENDORSEMENT (ALTA 7-06)",
      "endorsementType": "",
      "proposedRate": null,
      "propertyTypeList": "",
      "rateTypeList": ""
    },
    {
      "endorsementCode": "16.1",
      "description": "NM FORM 16.1 - MANUFACTURED HOUSING UNIT (CONVERSION LOAN) ENDORSEMENT (ALTA 7.1-06)",
      "endorsementType": "L",
      "proposedRate": null,
      "propertyTypeList": "",
      "rateTypeList": ""
    },
    {
      "endorsementCode": "16.2",
      "description": "NM FORM 16.2 - MANUFACTURED HOUSING UNIT (CONVERSION OWNER'S) ENDORSEMENT (ALTA 7.2-06)",
      "endorsementType": "O",
      "proposedRate": null,
      "propertyTypeList": "",
      "rateTypeList": ""
    },
    {
      "endorsementCode": "17",
      "description": "NM FORM 17 - REVOLVING CREDIT ENDORSEMENT (ALTA 14-06)",
      "endorsementType": "L",
      "proposedRate": null,
      "propertyTypeList": "",
      "rateTypeList": ""
    },
    {
      "endorsementCode": "20",
      "description": "NM FORM 20 - LEASEHOLD OWNER'S ENDORSEMENT (ALTA 13-06)",
      "endorsementType": "O",
      "proposedRate": null,
      "propertyTypeList": "",
      "rateTypeList": ""
    },
    {
      "endorsementCode": "21",
      "description": "NM FORM 21 - LEASEHOLD LOAN ENDORSEMENT (ALTA 13.1-06)",
      "endorsementType": "L",
      "proposedRate": null,
      "propertyTypeList": "",
      "rateTypeList": ""
    },
    {
      "endorsementCode": "22",
      "description": "NM FORM 22 - PENDING DISBURSEMENT DOWN DATE ENDORSEMENT (ALTA 10.1-06)",
      "endorsementType": "L",
      "proposedRate": null,
      "propertyTypeList": "",
      "rateTypeList": ""
    },
    {
      "endorsementCode": "23",
      "description": "NM FORM 23 - PENDING IMPROVEMENTS ENDORSEMENT",
      "endorsementType": "L",
      "proposedRate": null,
      "propertyTypeList": "",
      "rateTypeList": ""
    },
    {
      "endorsementCode": "24",
      "description": "NM FORM 24 - ASSIGNMENT ENDORSEMENT (ALTA 10-06)",
      "endorsementType": "L",
      "proposedRate": null,
      "propertyTypeList": "",
      "rateTypeList": ""
    },
    {
      "endorsementCode": "24.1",
      "description": "NM FORM 24.1 - ASSIGNMENT AND DOWN DATE ENDORSEMENT (ALTA 10.1-06)",
      "endorsementType": "L",
      "proposedRate": null,
      "propertyTypeList": "",
      "rateTypeList": ""
    },
    {
      "endorsementCode": "26",
      "description": "NM FORM 26 - PARTIAL COVERAGE ENDORSEMENT",
      "endorsementType": "L",
      "proposedRate": null,
      "propertyTypeList": "",
      "rateTypeList": ""
    },
    {
      "endorsementCode": "28",
      "description": "NM FORM 28 - NON-IMPUTATION - FULL EQUITY TRANSFER ENDORSEMENT (ALTA 15-06)",
      "endorsementType": "",
      "proposedRate": null,
      "propertyTypeList": "",
      "rateTypeList": ""
    },
    {
      "endorsementCode": "28.1",
      "description": "NM FORM 28.1 - NON-IMPUTATION ADDITIONAL INTEREST ENDORSEMENT (ALTA 15.1-06)",
      "endorsementType": "",
      "proposedRate": null,
      "propertyTypeList": "",
      "rateTypeList": ""
    },
    {
      "endorsementCode": "28.2",
      "description": "NM FORM 28.2 - NON-IMPUTATION - PARTIAL EQUITY TRANSFER ENDORSEMENT (ALTA 15.2-06)",
      "endorsementType": "",
      "proposedRate": null,
      "propertyTypeList": "",
      "rateTypeList": ""
    },
    {
      "endorsementCode": "29",
      "description": "NM FORM 29 - ENVIRONMENTAL PROTECTION LIEN ENDORSEMENT (ALTA 8.1-06)",
      "endorsementType": "",
      "proposedRate": null,
      "propertyTypeList": "",
      "rateTypeList": ""
    },
    {
      "endorsementCode": "30",
      "description": "NM FORM 30 - CONDOMINIUM ENDORSEMENT CURRENT ASSESSMENTS (ALTA 4.1-06)",
      "endorsementType": "O",
      "proposedRate": null,
      "propertyTypeList": "",
      "rateTypeList": ""
    },
    {
      "endorsementCode": "33",
      "description": "NM FORM 33 - CHANGE OF NAME ENDORSEMENT",
      "endorsementType": "",
      "proposedRate": null,
      "propertyTypeList": "",
      "rateTypeList": ""
    },
    {
      "endorsementCode": "42",
      "description": "NM FORM 42 - LIMITED PRE-FORECLOSURE TITLE INSURANCE POLICY DOWN DATE ENDORSEMENT (ALTA 12\/03\/12)",
      "endorsementType": "L",
      "proposedRate": null,
      "propertyTypeList": "",
      "rateTypeList": ""
    },
    {
      "endorsementCode": "43",
      "description": "NM FORM 43 - INSURING AROUND ENDORSEMENT",
      "endorsementType": "",
      "proposedRate": null,
      "propertyTypeList": "",
      "rateTypeList": ""
    },
    {
      "endorsementCode": "46",
      "description": "NM FORM 46 - DOWN DATE ENDORSEMENT TO RESIDENTIAL LIMITED COVERAGE JUNIOR LOAN POLICY JR1 (ALTA 08\/01\/12)",
      "endorsementType": "L",
      "proposedRate": null,
      "propertyTypeList": "",
      "rateTypeList": ""
    },
    {
      "endorsementCode": "47",
      "description": "NM FORM 47 - ENDORSEMENT TO RESIDENTIAL LIMITED COVERAGE JUNIOR LOAN POLICY JR2 (ALTA 08\/01\/12)",
      "endorsementType": "L",
      "proposedRate": null,
      "propertyTypeList": "",
      "rateTypeList": ""
    },
    {
      "endorsementCode": "49",
      "description": "NM FORM 49 - NOTICE OF AVAILABILITY OF FUTURE INCREASE IN COVERAGE AND POTENTIAL PREMIUM DISCOUNTS FOR FUTURE POLICIES",
      "endorsementType": "L",
      "proposedRate": null,
      "propertyTypeList": "",
      "rateTypeList": ""
    },
    {
      "endorsementCode": "50",
      "description": "NM FORM 50 - RESTRICTIONS, ENCROACHMENTS AND MINERALS ENDORSEMENT - LOAN POLICY (ALTA 9-06)",
      "endorsementType": "L",
      "proposedRate": null,
      "propertyTypeList": "",
      "rateTypeList": ""
    },
    {
      "endorsementCode": "50.1",
      "description": "NM FORM 50.1 - RESTRICTIONS, ENCROACHMENTS, MINERALS - LOAN POLICY ENDORSEMENT (ALTA 9.3-06)",
      "endorsementType": "L",
      "proposedRate": null,
      "propertyTypeList": "",
      "rateTypeList": ""
    },
    {
      "endorsementCode": "51",
      "description": "NM FORM 51 - LAND ABUTS STREET ENDORSEMENT",
      "endorsementType": "",
      "proposedRate": null,
      "propertyTypeList": "",
      "rateTypeList": ""
    },
    {
      "endorsementCode": "52",
      "description": "NM FORM 52 - LOCATION ENDORSEMENT (ALTA 22-06)",
      "endorsementType": "",
      "proposedRate": null,
      "propertyTypeList": "",
      "rateTypeList": ""
    },
    {
      "endorsementCode": "54",
      "description": "NM FORM 54 - CONTIGUITY SINGLE PARCEL ENDORSEMENT (ALTA 22-06)",
      "endorsementType": "",
      "proposedRate": null,
      "propertyTypeList": "",
      "rateTypeList": ""
    },
    {
      "endorsementCode": "55",
      "description": "NM FORM 55 - NAMED INSURED ENDORSEMENT",
      "endorsementType": "",
      "proposedRate": null,
      "propertyTypeList": "",
      "rateTypeList": ""
    },
    {
      "endorsementCode": "56",
      "description": "NM FORM 56 - RESTRICTIONS, ENCROACHMENTS, MINERALS - OWNER'S POLICY (UNIMPROVED LAND) ENDORSEMENT (ALTA 9.1-06)",
      "endorsementType": "O",
      "proposedRate": null,
      "propertyTypeList": "",
      "rateTypeList": ""
    },
    {
      "endorsementCode": "56.1",
      "description": "NM FORM 56.1 - RESTRICTIONS, ENCROACHMENTS, MINERALS - OWNER'S POLICY (UNIMPROVED LAND) ENDORSEMENT (ALTA 9.4-06)",
      "endorsementType": "O",
      "proposedRate": null,
      "propertyTypeList": "",
      "rateTypeList": ""
    },
    {
      "endorsementCode": "57",
      "description": "NM FORM 57 - RESTRICTIONS, ENCROACHMENTS, MINERALS - OWNER'S POLICY (IMPROVED LAND) ENDORSEMENT (ALTA 9.2-06)",
      "endorsementType": "O",
      "proposedRate": null,
      "propertyTypeList": "",
      "rateTypeList": ""
    },
    {
      "endorsementCode": "57.1",
      "description": "NM FORM 57.1 - RESTRICTIONS, ENCROACHMENTS, AND MINERALS - (OWNER'S POLICY - IMPROVED LAND) ENDORSEMENT (ALTA 9.5-06)",
      "endorsementType": "O",
      "proposedRate": null,
      "propertyTypeList": "",
      "rateTypeList": ""
    },
    {
      "endorsementCode": "58",
      "description": "NM FORM 58 - FIRST LOSS - MULTIPLE PARCEL TRANSACTIONS ENDORSEMENT (ALTA 20-06)",
      "endorsementType": "",
      "proposedRate": null,
      "propertyTypeList": "",
      "rateTypeList": ""
    },
    {
      "endorsementCode": "60",
      "description": "NM FORM 60 - AGGREGATION (ALTA 12-06)",
      "endorsementType": "",
      "proposedRate": null,
      "propertyTypeList": "",
      "rateTypeList": ""
    },
    {
      "endorsementCode": "60.1",
      "description": "NM FORM 60.1 - AGGREGATION ENDORSEMENT (ALTA 12.1-06)",
      "endorsementType": "",
      "proposedRate": null,
      "propertyTypeList": "",
      "rateTypeList": ""
    },
    {
      "endorsementCode": "61",
      "description": "NM FORM 61 - FUNDATION ENDORSEMENT",
      "endorsementType": "",
      "proposedRate": null,
      "propertyTypeList": "",
      "rateTypeList": ""
    },
    {
      "endorsementCode": "62",
      "description": "NM FORM 62 - ASSIGNMENT OF RENTS/LEASES ENDORSEMENT (ALTA 37-06)",
      "endorsementType": "L",
      "proposedRate": null,
      "propertyTypeList": "",
      "rateTypeList": ""
    },
    {
      "endorsementCode": "64",
      "description": "NM FORM 64 - ZONING - UNIMPROVED LAND ENDORSEMENT (ALTA 3-06)",
      "endorsementType": "",
      "proposedRate": null,
      "propertyTypeList": "",
      "rateTypeList": ""
    },
    {
      "endorsementCode": "64.1",
      "description": "NM FORM 64.1 - ZONING - UNIMPROVED LAND - NO APPLICABLE ZONING ORDINANCES ENDORSEMENT",
      "endorsementType": "",
      "proposedRate": null,
      "propertyTypeList": "",
      "rateTypeList": ""
    },  
    {
      "endorsementCode": "65",
      "description": "NM FORM 65 - ZONING - COMPLETED STRUCTURE ENDORSEMENT (ALTA 3.1-06)",
      "endorsementType": "",
      "proposedRate": null,
      "propertyTypeList": "",
      "rateTypeList": ""
    },   
    {
      "endorsementCode": "65.1",
      "description": "NM FORM 65.1 - ZONING LAND UNDER DEVELOPMENT ENDORSEMENT (ALTA 3.2-06)",
      "endorsementType": "",
      "proposedRate": null,
      "propertyTypeList": "",
      "rateTypeList": ""
    },  
    {
      "endorsementCode": "65.2",
      "description": "NM FORM 65.2 - ZONING - COMPLETED STRUCTURE - NO APPLICABLE ZONING ORDINANCES ENDORSEMENT",
      "endorsementType": "",
      "proposedRate": null,
      "propertyTypeList": "",
      "rateTypeList": ""
    },  
    {
      "endorsementCode": "66",
      "description": "NM FORM 66 - CONTIGUITY - MULTIPLE PARCELS ENDORSEMENT (ALTA 19-06)",
      "endorsementType": "",
      "proposedRate": null,
      "propertyTypeList": "",
      "rateTypeList": ""
    }, 
    {
      "endorsementCode": "67",
      "description": "NM FORM 67 - ACCESS AND ENTRY ENDORSEMENT (ALTA 17-06)",
      "endorsementType": "",
      "proposedRate": null,
      "propertyTypeList": "",
      "rateTypeList": ""
    },      
    {
      "endorsementCode": "68",
      "description": "NM FORM 68 - INDIRECT ACCESS AND ENTRY ENDORSEMENT (ALTA 17.1-06)",
      "endorsementType": "",
      "proposedRate": null,
      "propertyTypeList": "",
      "rateTypeList": ""
    }, 
    {
      "endorsementCode": "69",
      "description": "NM FORM 69 - UTILITY ACCESS ENDORSEMENT (ALTA 17.2-06)",
      "endorsementType": "",
      "proposedRate": null,
      "propertyTypeList": "",
      "rateTypeList": ""
    }, 
    {
      "endorsementCode": "70",
      "description": "NM FORM 70 - COMMERCIAL ENVIRONMENTAL PROTECTION LIEN ENDORSEMENT (ALTA 8.2-06)",
      "endorsementType": "",
      "proposedRate": null,
      "propertyTypeList": "",
      "rateTypeList": ""
    }, 
    {
      "endorsementCode": "71",
      "description": "NM FORM 71 - REVERSE MORTGAGE ENDORSEMENT (ALTA 14.3-06)",
      "endorsementType": "L",
      "proposedRate": null,
      "propertyTypeList": "",
      "rateTypeList": ""
    }, 
    {
      "endorsementCode": "72",
      "description": "NM FORM 72 - SINGLE TAX PARCEL ENDORSEMENT (ALTA 18-06)",
      "endorsementType": "",
      "proposedRate": null,
      "propertyTypeList": "",
      "rateTypeList": ""
    },  
    {
      "endorsementCode": "73",
      "description": "NM FORM 73 - MULTIPLE TAX PARCEL ENDORSEMENT (ALTA 18.1-06)",
      "endorsementType": "",
      "proposedRate": null,
      "propertyTypeList": "",
      "rateTypeList": ""
    }, 
    {
      "endorsementCode": "74",
      "description": "NM FORM 74 - DOING BUSINESS ENDORSEMENT (ALTA 24-06)",
      "endorsementType": "",
      "proposedRate": null,
      "propertyTypeList": "",
      "rateTypeList": ""
    },  
    {
      "endorsementCode": "75",
      "description": "NM FORM 75 - SUBDIVISION ENDORSEMENT (ALTA 26-06)",
      "endorsementType": "",
      "proposedRate": null,
      "propertyTypeList": "",
      "rateTypeList": ""
    },
    {
      "endorsementCode": "76",
      "description": "NM FORM 76 - EASEMENT - DAMAGE OR ENFORCED REMOVAL ENDORSEMENT (ALTA 28-06)",
      "endorsementType": "",
      "proposedRate": null,
      "propertyTypeList": "",
      "rateTypeList": ""
    },
    {
      "endorsementCode": "77",
      "description": "NM FORM 77 - CO - INSURANCE - SINGLE POLICY ENDORSEMENT (ALTA 23-06)",
      "endorsementType": "",
      "proposedRate": null,
      "propertyTypeList": "",
      "rateTypeList": ""
    },
    {
      "endorsementCode": "78",
      "description": "NM FORM 78 - SAME AS SURVEY ENDORSEMENT (ALTA 25-06)",
      "endorsementType": "",
      "proposedRate": null,
      "propertyTypeList": "",
      "rateTypeList": ""
    },
    {
      "endorsementCode": "79",
      "description": "NM FORM 79 - SAME AS PORTION OF SURVEY ENDORSEMENT (ALTA 25.1-06)",
      "endorsementType": "",
      "proposedRate": null,
      "propertyTypeList": "",
      "rateTypeList": ""
    },
    {
      "endorsementCode": "80",
      "description": "NM FORM 80 - MORTGAGE MODIFICATION ENDORSEMENT (ALTA 11-06)",
      "endorsementType": "L",
      "proposedRate": null,
      "propertyTypeList": "",
      "rateTypeList": ""
    },    
    {
      "endorsementCode": "80.1",
      "description": "80.1 NM MORTGAGE MODIFICATION WITH SUBORDINATION ENDORSEMENT (ALTA 11.1-06)",
      "endorsementType": "L",
      "proposedRate": null,
      "propertyTypeList": "",
      "rateTypeList": ""
    },  
    {
      "endorsementCode": "83",
      "description": "NM FORM 83 - CONSTRUCTION LOAN - LOSS OF PRIORITY ENDORSEMENT (ALTA 32.0-06)",
      "endorsementType": "L",
      "proposedRate": null,
      "propertyTypeList": "",
      "rateTypeList": ""
    },
    {
      "endorsementCode": "83.1",
      "description": "NM FORM 83.1 - CONSTRUCTION LOAN - LOSS OF PRIORITY - DIRECT PAYMENT ENDORSEMENT (ALTA 32.1-06)",
      "endorsementType": "L",
      "proposedRate": null,
      "propertyTypeList": "",
      "rateTypeList": ""
    },
    {
      "endorsementCode": "83.2",
      "description": "NM FORM 83.2 - CONSTRUCTION LOAN - LOSS OF PRIORITY - INSURED'S DIRECT PAYMENT ENDORSEMENT (ALTA 32.2-06)",
      "endorsementType": "L",
      "proposedRate": null,
      "propertyTypeList": "",
      "rateTypeList": ""
    },
    {
      "endorsementCode": "84",
      "description": "NM FORM 84 - DISBURSEMENT ENDORSEMENT (ALTA 33-06)",
      "endorsementType": "L",
      "proposedRate": null,
      "propertyTypeList": "",
      "rateTypeList": ""
    },
    {
      "endorsementCode": "86",
      "description": "86 NM POLICY AUTHENTICATION ENDORSEMENT (ALTA 39-06)",
      "endorsementType": "",
      "proposedRate": null,
      "propertyTypeList": "",
      "rateTypeList": ""
    },  
    {
      "endorsementCode": "88",
      "description": "88-88.8 NM ENERGY PROJECT ENDORSEMENTS ETC.(ALTA 36-06 - 36.8-06)",
      "endorsementType": "",
      "proposedRate": null,
      "propertyTypeList": "",
      "rateTypeList": ""
    },  
    {
      "endorsementCode": "89",
      "description": "89 NM MEZZANINE FINANCING ENDORSEMENT (ALTA 16-06)",
      "endorsementType": "",
      "proposedRate": null,
      "propertyTypeList": "",
      "rateTypeList": ""
    },   
    {
      "endorsementCode": "91",
      "description": "91 NM CONTACT PURCHASER CONVERSION ENDORSEMENT",
      "endorsementType": "",
      "proposedRate": null,
      "propertyTypeList": "",
      "rateTypeList": ""
    },  
    {
      "endorsementCode": "ACT",
      "description": "ACT ADDITIONAL CHAIN OF TITLE",
      "endorsementType": "",
      "proposedRate": null,
      "propertyTypeList": "",
      "rateTypeList": ""
    },
    {
      "endorsementCode": "DO",
      "description": "DO DUPLICATE ORIGINAL POLICY",
      "endorsementType": "",
      "proposedRate": null,
      "propertyTypeList": "",
      "rateTypeList": ""
    },
    {
      "endorsementCode": "OML",
      "description": "OML OWNERS MECHANIC LIEN COVERAGE - FILING PERIOD EXPIRED",
      "endorsementType": "O",
      "proposedRate": null,
      "propertyTypeList": "",
      "rateTypeList": ""
    },
    {
      "endorsementCode": "UC",
      "description": "UC UNUSUAL COMPLEXITY",
      "endorsementType": "",
      "proposedRate": null,
      "propertyTypeList": "",
      "rateTypeList": ""
    }
  ]
 }
 }