&ANALYZE-SUSPEND _VERSION-NUMBER AB_v10r12
&ANALYZE-RESUME
&ANALYZE-SUSPEND _UIB-CODE-BLOCK _CUSTOM _DEFINITIONS Include 
/*------------------------------------------------------------------------
File        : tt/activitymonth.i
Purpose     :

Syntax      :

Description : Used specifically for WEB CRM app 

Author(s)   : Rahul Sharma
Created     : 05-21-2019
Notes       :

Modification:
Date          Name           Description
----------------------------------------------------------------------*/

&IF defined(tableAlias) = 0 &THEN
&scoped-define tableAlias activitymonth
&ENDIF
   
def temp-table {&tableAlias}
  field  month        as decimal
  field  year         as decimal
  field  nprPlanned   as decimal
  field  nprActual    as decimal
  field  nprPercent   as decimal
  field  cplPlanned   as decimal
  field  cplActual    as decimal
  field  cplPercent   as decimal
  .

/* _UIB-CODE-BLOCK-END */
&ANALYZE-RESUME


&ANALYZE-SUSPEND _UIB-PREPROCESSOR-BLOCK 

/* ********************  Preprocessor Definitions  ******************** */



/* _UIB-PREPROCESSOR-BLOCK-END */
&ANALYZE-RESUME



/* *********************** Procedure Settings ************************ */

&ANALYZE-SUSPEND _PROCEDURE-SETTINGS
/* Settings for THIS-PROCEDURE
   Type: Include
   Allow: 
   Frames: 0
   Add Fields to: Neither
   Other Settings: INCLUDE-ONLY
 */
&ANALYZE-RESUME _END-PROCEDURE-SETTINGS

/* *************************  Create Window  ************************** */

&ANALYZE-SUSPEND _CREATE-WINDOW
/* DESIGN Window definition (used by the UIB) 
  CREATE WINDOW Include ASSIGN
         HEIGHT             = 15
         WIDTH              = 60.
/* END WINDOW DEFINITION */
                                                                        */
&ANALYZE-RESUME

 


&ANALYZE-SUSPEND _UIB-CODE-BLOCK _CUSTOM _MAIN-BLOCK Include 



/* _UIB-CODE-BLOCK-END */
&ANALYZE-RESUME


