&ANALYZE-SUSPEND _VERSION-NUMBER AB_v10r12
&ANALYZE-RESUME
&ANALYZE-SUSPEND _UIB-CODE-BLOCK _CUSTOM _DEFINITIONS Include 
/* tt/claimnote.i
   datastructure for a CLAIM NOTE
   Created D.Sinclair 2.15.2015
    Modified Sachin Chaturvedi 09.29.2020 - Added field UserName
 */


&IF defined(tableAlias) = 0 &THEN
&scoped-define tableAlias agentnote
&ENDIF

define temp-table {&tableAlias}
  field agentID as character
  field seq as int
  field noteDate as datetime
  field uid as character
  field category as character
  field subject as character
  field noteType as character   /* A)ction, U)ser */
  field notes as character
  
  /* not in the database */
  field categoryDesc as character
  field typeDesc as character
  field edited as logical
  field userName as character
  .

/* _UIB-CODE-BLOCK-END */
&ANALYZE-RESUME


&ANALYZE-SUSPEND _UIB-PREPROCESSOR-BLOCK 

/* ********************  Preprocessor Definitions  ******************** */



/* _UIB-PREPROCESSOR-BLOCK-END */
&ANALYZE-RESUME



/* *********************** Procedure Settings ************************ */

&ANALYZE-SUSPEND _PROCEDURE-SETTINGS
/* Settings for THIS-PROCEDURE
   Type: Include
   Allow: 
   Frames: 0
   Add Fields to: Neither
   Other Settings: INCLUDE-ONLY
 */
&ANALYZE-RESUME _END-PROCEDURE-SETTINGS

/* *************************  Create Window  ************************** */

&ANALYZE-SUSPEND _CREATE-WINDOW
/* DESIGN Window definition (used by the UIB) 
  CREATE WINDOW Include ASSIGN
         HEIGHT             = 15
         WIDTH              = 60.
/* END WINDOW DEFINITION */
                                                                        */
&ANALYZE-RESUME

 


&ANALYZE-SUSPEND _UIB-CODE-BLOCK _CUSTOM _MAIN-BLOCK Include 


/* ***************************  Main Block  *************************** */

/* _UIB-CODE-BLOCK-END */
&ANALYZE-RESUME


