&ANALYZE-SUSPEND _VERSION-NUMBER AB_v10r12
&ANALYZE-RESUME
&ANALYZE-SUSPEND _UIB-CODE-BLOCK _CUSTOM _DEFINITIONS Include 
/* tt/claimcontact.i
   datastructure for a CLAIM CONTACT
   Created D.Sinclair 2.15.2015
 */


&IF defined(tableAlias) = 0 &THEN
&scoped-define tableAlias claimcontact
&ENDIF

def temp-table {&tableAlias}
 field claimID as int
 field contactID as int
 field role as char

 field fname as char
 field lname as char
 field fullName as char
 field jobTitle as char
 field email as char
 field phone as char
 field fax as char
 field mobile as char
 field isActive as logical
 
 field company as char
 field addr1 as char
 field addr2 as char
 field city as char
 field countyID as char
 field stateID as char
 field zipcode as char

 field notes as char
 
 field roleDesc as char     /* Not in DB */
 .

/* _UIB-CODE-BLOCK-END */
&ANALYZE-RESUME


&ANALYZE-SUSPEND _UIB-PREPROCESSOR-BLOCK 

/* ********************  Preprocessor Definitions  ******************** */



/* _UIB-PREPROCESSOR-BLOCK-END */
&ANALYZE-RESUME



/* *********************** Procedure Settings ************************ */

&ANALYZE-SUSPEND _PROCEDURE-SETTINGS
/* Settings for THIS-PROCEDURE
   Type: Include
   Allow: 
   Frames: 0
   Add Fields to: Neither
   Other Settings: INCLUDE-ONLY
 */
&ANALYZE-RESUME _END-PROCEDURE-SETTINGS

/* *************************  Create Window  ************************** */

&ANALYZE-SUSPEND _CREATE-WINDOW
/* DESIGN Window definition (used by the UIB) 
  CREATE WINDOW Include ASSIGN
         HEIGHT             = 15
         WIDTH              = 60.
/* END WINDOW DEFINITION */
                                                                        */
&ANALYZE-RESUME

 


&ANALYZE-SUSPEND _UIB-CODE-BLOCK _CUSTOM _MAIN-BLOCK Include 


/* ***************************  Main Block  *************************** */

/* _UIB-CODE-BLOCK-END */
&ANALYZE-RESUME


