&ANALYZE-SUSPEND _VERSION-NUMBER AB_v10r12
&ANALYZE-RESUME
&ANALYZE-SUSPEND _UIB-CODE-BLOCK _CUSTOM _DEFINITIONS Include 
/* tt/entitycontact.i
   data-structure for a contact information in CRM application
   @author Rahul Sharma
   @created 05.07.2019
   @modification
   Date         Name          Description
   05/22/2019   Rahul Sharma  Modified to remove name field
 */



&IF defined(tableAlias) = 0 &THEN
&scoped-define tableAlias entitycontact
&ENDIF

define temp-table {&tableAlias}
  field entity    as char
  field entityID  as char
  field email     as char
  field phone1    as char
  field phone2    as char
  field addr1     as char
  field addr2     as char
  field addr3     as char
  field addr4     as char
  field city      as char
  field state     as char
  field zip       as char
  field internal  as log
  field doNotCall as log
  .
  
/* _UIB-CODE-BLOCK-END */
&ANALYZE-RESUME


&ANALYZE-SUSPEND _UIB-PREPROCESSOR-BLOCK 

/* ********************  Preprocessor Definitions  ******************** */



/* _UIB-PREPROCESSOR-BLOCK-END */
&ANALYZE-RESUME



/* *********************** Procedure Settings ************************ */

&ANALYZE-SUSPEND _PROCEDURE-SETTINGS
/* Settings for THIS-PROCEDURE
   Type: Include
   Allow: 
   Frames: 0
   Add Fields to: Neither
   Other Settings: INCLUDE-ONLY
 */
&ANALYZE-RESUME _END-PROCEDURE-SETTINGS

/* *************************  Create Window  ************************** */

&ANALYZE-SUSPEND _CREATE-WINDOW
/* DESIGN Window definition (used by the UIB) 
  CREATE WINDOW Include ASSIGN
         HEIGHT             = 15
         WIDTH              = 60.
/* END WINDOW DEFINITION */
                                                                        */
&ANALYZE-RESUME

 


&ANALYZE-SUSPEND _UIB-CODE-BLOCK _CUSTOM _MAIN-BLOCK Include 


/* ***************************  Main Block  *************************** */

/* _UIB-CODE-BLOCK-END */
&ANALYZE-RESUME


