&ANALYZE-SUSPEND _VERSION-NUMBER AB_v10r12
&ANALYZE-RESUME
&ANALYZE-SUSPEND _UIB-CODE-BLOCK _CUSTOM _DEFINITIONS Include 
/*------------------------------------------------------------------------
File        : tt/miscinvstatement.i
Purpose     :

Syntax      :

Description :

Author(s)   : Sachin Chaturvedi
Created     : 02-15-2021
Notes       :

Modification:
Date          Name      Description
----------------------------------------------------------------------*/

&if defined(tablealias) = 0 &then
&scoped-define tableAlias miscinvstatement
&endif
   
define temp-table {&tableAlias}
  field artranID         as integer
  field invoiceID        as character 
  field reference        as character 
  field fileNumber       as character 
  field tranAmt          as decimal   
  field SourceType       as character 
  field SourceNumber     as character 
  field tranDate         as datetime  
  field duedate          as datetime  
  field agentID          as character 
  field agentAddr1       as character 
  field agentAddr2       as character 
  field agentCity        as character 
  field agentState       as character 
  field agentZip         as character 
  field agentName        as character
  field notes            as character  
  .

/* _UIB-CODE-BLOCK-END */
&ANALYZE-RESUME


&ANALYZE-SUSPEND _UIB-PREPROCESSOR-BLOCK 

/* ********************  Preprocessor Definitions  ******************** */



/* _UIB-PREPROCESSOR-BLOCK-END */
&ANALYZE-RESUME



/* *********************** Procedure Settings ************************ */

&ANALYZE-SUSPEND _PROCEDURE-SETTINGS
/* Settings for THIS-PROCEDURE
   Type: Include
   Allow: 
   Frames: 0
   Add Fields to: Neither
   Other Settings: INCLUDE-ONLY
 */
&ANALYZE-RESUME _END-PROCEDURE-SETTINGS

/* *************************  Create Window  ************************** */

&ANALYZE-SUSPEND _CREATE-WINDOW
/* DESIGN Window definition (used by the UIB) 
  CREATE WINDOW Include ASSIGN
         HEIGHT             = 15
         WIDTH              = 60.
/* END WINDOW DEFINITION */
                                                                        */
&ANALYZE-RESUME

 


&ANALYZE-SUSPEND _UIB-CODE-BLOCK _CUSTOM _MAIN-BLOCK Include 



/* _UIB-CODE-BLOCK-END */
&ANALYZE-RESUME


