&ANALYZE-SUSPEND _VERSION-NUMBER AB_v10r12
&ANALYZE-RESUME
&ANALYZE-SUSPEND _UIB-CODE-BLOCK _CUSTOM _DEFINITIONS Include 
/* qarquestiond.i
    Modification:
    Date          Name      Description
    07/26/2017    AC        New field added to handle version
    29/07/2022    SD       Task#95509: Modified to support clob related changes
  ----------------------------------------------------------------------*/
  
&IF defined(tableAlias) = 0 &THEN
&scoped-define tableAlias questionDefault
&ENDIF


&IF DEFINED(nodeType) = 0 &THEN
&SCOPED-DEFINE nodeType XML-NODE-TYPE "attribute"
&ENDIF

&IF DEFINED(nodeName) = 0 &THEN
&SCOPED-DEFINE XMLNodeName XML-NODE-NAME "questionDefault"
&ELSE
&SCOPED-DEFINE XMLNodeName XML-NODE-NAME "{&nodeName}"
&ENDIF

   
def temp-table {&tableAlias}
  field version as char     {&nodeType}
  field seq as int             {&nodeType}
  field questionID as char      {&nodeType}
  field description as char   {&nodeType}
  field priority as int     {&nodeType}
  field canChangePriority as logical    {&nodeType}
/*   field splitPosition as int  */
  field warningAnswer as char  {&nodeType}
  field warningMsg as char      {&nodeType}
  field warningTip as char    {&nodeType}
  .

/* _UIB-CODE-BLOCK-END */
&ANALYZE-RESUME


&ANALYZE-SUSPEND _UIB-PREPROCESSOR-BLOCK 

/* ********************  Preprocessor Definitions  ******************** */



/* _UIB-PREPROCESSOR-BLOCK-END */
&ANALYZE-RESUME



/* *********************** Procedure Settings ************************ */

&ANALYZE-SUSPEND _PROCEDURE-SETTINGS
/* Settings for THIS-PROCEDURE
   Type: Include
   Allow: 
   Frames: 0
   Add Fields to: Neither
   Other Settings: INCLUDE-ONLY
 */
&ANALYZE-RESUME _END-PROCEDURE-SETTINGS

/* *************************  Create Window  ************************** */

&ANALYZE-SUSPEND _CREATE-WINDOW
/* DESIGN Window definition (used by the UIB) 
  CREATE WINDOW Include ASSIGN
         HEIGHT             = 15
         WIDTH              = 60.
/* END WINDOW DEFINITION */
                                                                        */
&ANALYZE-RESUME

 


&ANALYZE-SUSPEND _UIB-CODE-BLOCK _CUSTOM _MAIN-BLOCK Include 



/* _UIB-CODE-BLOCK-END */
&ANALYZE-RESUME


