&ANALYZE-SUSPEND _VERSION-NUMBER AB_v10r12
&ANALYZE-RESUME
&ANALYZE-SUSPEND _UIB-CODE-BLOCK _CUSTOM _DEFINITIONS Include 
/*------------------------------------------------------------------------
    File        : ratescenario.i
    Purpose     : ratescenario datastructure
    Author(s)   : Sachin Chaturvedi
    Created     : 10.14.2019
    Modification:
    Date          Name      Description
              
  ----------------------------------------------------------------------*/
  
&if defined(tableAlias) = 0 &THEN
&scoped-define tableAlias ratescenario
&endif

define temp-table {&tableAlias}
  field scenarioID     as integer
  field cardSetID      as integer
  field scenario       as character
  field description    as character 
  field region         as character
  field property       as character
  field createdDate    as datetime
  .

/* _UIB-CODE-BLOCK-END */
&ANALYZE-RESUME


&ANALYZE-SUSPEND _UIB-PREPROCESSOR-BLOCK 

/* ********************  Preprocessor Definitions  ******************** */



/* _UIB-PREPROCESSOR-BLOCK-END */
&ANALYZE-RESUME



/* *********************** Procedure Settings ************************ */

&ANALYZE-SUSPEND _PROCEDURE-SETTINGS
/* Settings for THIS-PROCEDURE
   Type: Include
   Allow: 
   Frames: 0
   Add Fields to: Neither
   Other Settings: INCLUDE-ONLY
 */
&ANALYZE-RESUME _END-PROCEDURE-SETTINGS

/* *************************  Create Window  ************************** */

&ANALYZE-SUSPEND _CREATE-WINDOW
/* DESIGN Window definition (used by the UIB) 
  CREATE WINDOW Include ASSIGN
         HEIGHT             = 15
         WIDTH              = 60.
/* END WINDOW DEFINITION */
                                                                        */
&ANALYZE-RESUME

 


&ANALYZE-SUSPEND _UIB-CODE-BLOCK _CUSTOM _MAIN-BLOCK Include 


/* ***************************  Main Block  *************************** */

/* _UIB-CODE-BLOCK-END */
&ANALYZE-RESUME


