&ANALYZE-SUSPEND _VERSION-NUMBER AB_v10r12
&ANALYZE-RESUME
&ANALYZE-SUSPEND _UIB-CODE-BLOCK _CUSTOM _DEFINITIONS Include 
/*------------------------------------------------------------------------
    File        : 
    Purpose     :

    Syntax      :

    Description :

    Author(s)   :
    Created     :
    Notes       :
  ----------------------------------------------------------------------*/
/*          This .W file was created with the Progress AppBuilder.      */
/*----------------------------------------------------------------------*/

/* ***************************  Definitions  ************************** */
&IF defined(tableAlias) = 0 &THEN
&scoped-define tableAlias rateTable
&ENDIF
define temp-table {&tableAlias} 
    field ratetableID       as integer
    field cardID            as integer
    field seq               as integer
    field minAmount         as decimal 
    field maxAmount         as decimal 
    field roundTo           as decimal
    field calcType          as character /*  F)ixed / R)ate  */
    field stack             as logical
    field rate              as decimal 
    field per               as decimal 
    field fixed             as decimal 
    field lastModifiedDate  as datetime
    field lastModifiedBy    as character
    field comments          as character.

/* _UIB-CODE-BLOCK-END */
&ANALYZE-RESUME


&ANALYZE-SUSPEND _UIB-PREPROCESSOR-BLOCK 

/* ********************  Preprocessor Definitions  ******************** */



/* _UIB-PREPROCESSOR-BLOCK-END */
&ANALYZE-RESUME



/* *********************** Procedure Settings ************************ */

&ANALYZE-SUSPEND _PROCEDURE-SETTINGS
/* Settings for THIS-PROCEDURE
   Type: Include
   Allow: 
   Frames: 0
   Add Fields to: Neither
   Other Settings: INCLUDE-ONLY
 */
&ANALYZE-RESUME _END-PROCEDURE-SETTINGS

/* *************************  Create Window  ************************** */

&ANALYZE-SUSPEND _CREATE-WINDOW
/* DESIGN Window definition (used by the UIB) 
  CREATE WINDOW Include ASSIGN
         HEIGHT             = 15
         WIDTH              = 60.
/* END WINDOW DEFINITION */
                                                                        */
&ANALYZE-RESUME

 


&ANALYZE-SUSPEND _UIB-CODE-BLOCK _CUSTOM _MAIN-BLOCK Include 


/* ***************************  Main Block  *************************** */

/* _UIB-CODE-BLOCK-END */
&ANALYZE-RESUME


