&ANALYZE-SUSPEND _VERSION-NUMBER AB_v10r12
&ANALYZE-RESUME
&ANALYZE-SUSPEND _UIB-CODE-BLOCK _CUSTOM _DEFINITIONS Include 
/*------------------------------------------------------------------------
    File        : statcode.i
    Purpose     : STATistical CODE datastructure
    Author(s)   : D.Sinclair
    Created     : 1.24.2012
    Notes       :
  ----------------------------------------------------------------------*/

&IF defined(tableAlias) = 0 &THEN
&scoped-define tableAlias statcode
&ENDIF

&IF defined(nodeType) = 0 &THEN
&scoped-define nodeType xml-node-type "attribute"
&ENDIF

def temp-table {&tableAlias}
 field stateID as char {&nodeType}
 field statCode as char {&nodeType}
 field active as logical {&nodeType}
 field description as char {&nodeType}
 field regulation as char {&nodeType}
 field formID as char {&nodeType}       /* default form */
 field formType as char {&nodeType}     /* Not stored in DB - retrieved from stateform.formType */
 index statcode is primary unique
  stateID
  statCode
 .

/* _UIB-CODE-BLOCK-END */
&ANALYZE-RESUME


&ANALYZE-SUSPEND _UIB-PREPROCESSOR-BLOCK 

/* ********************  Preprocessor Definitions  ******************** */



/* _UIB-PREPROCESSOR-BLOCK-END */
&ANALYZE-RESUME



/* *********************** Procedure Settings ************************ */

&ANALYZE-SUSPEND _PROCEDURE-SETTINGS
/* Settings for THIS-PROCEDURE
   Type: Include
   Allow: 
   Frames: 0
   Add Fields to: Neither
   Other Settings: INCLUDE-ONLY
 */
&ANALYZE-RESUME _END-PROCEDURE-SETTINGS

/* *************************  Create Window  ************************** */

&ANALYZE-SUSPEND _CREATE-WINDOW
/* DESIGN Window definition (used by the UIB) 
  CREATE WINDOW Include ASSIGN
         HEIGHT             = 15
         WIDTH              = 60.
/* END WINDOW DEFINITION */
                                                                        */
&ANALYZE-RESUME

 


&ANALYZE-SUSPEND _UIB-CODE-BLOCK _CUSTOM _MAIN-BLOCK Include 


/* ***************************  Main Block  *************************** */

/* _UIB-CODE-BLOCK-END */
&ANALYZE-RESUME


