&ANALYZE-SUSPEND _VERSION-NUMBER AB_v10r12
&ANALYZE-RESUME
&ANALYZE-SUSPEND _UIB-CODE-BLOCK _CUSTOM _DEFINITIONS Include 
/*---------------------------------------------------------------------
@name Compass
@action 
@description Tests if the user is the claim assigned to user or has the
             Claim Administrator role

@param claimID;int;The claim id
@param username;char;The user id of current user (usually pRequest:uid
                     on the server)

@author John Oliver
@version 1.0
@created 12/12/2016
@notes 
---------------------------------------------------------------------*/

/* ***************************  Definitions  ************************** */

&if defined(username) = 0 &then
&scoped-define username pRequest:uid
&endif

can-find(first claim where claimID = {&claimID} and assignedTo = {&username})
or
{lib/isclaimadmin.i &username={&username}}
or
can-find(first sysuser where uid = {&username} and can-do(sysuser.role,"ClmManager"))

/* _UIB-CODE-BLOCK-END */
&ANALYZE-RESUME


&ANALYZE-SUSPEND _UIB-PREPROCESSOR-BLOCK 

/* ********************  Preprocessor Definitions  ******************** */



/* _UIB-PREPROCESSOR-BLOCK-END */
&ANALYZE-RESUME



/* *********************** Procedure Settings ************************ */

&ANALYZE-SUSPEND _PROCEDURE-SETTINGS
/* Settings for THIS-PROCEDURE
   Type: Include
   Allow: 
   Frames: 0
   Add Fields to: Neither
   Other Settings: INCLUDE-ONLY
 */
&ANALYZE-RESUME _END-PROCEDURE-SETTINGS

/* *************************  Create Window  ************************** */

&ANALYZE-SUSPEND _CREATE-WINDOW
/* DESIGN Window definition (used by the UIB) 
  CREATE WINDOW Include ASSIGN
         HEIGHT             = 15
         WIDTH              = 60.
/* END WINDOW DEFINITION */
                                                                        */
&ANALYZE-RESUME

 


&ANALYZE-SUSPEND _UIB-CODE-BLOCK _CUSTOM _MAIN-BLOCK Include 


/* ***************************  Main Block  *************************** */

/* _UIB-CODE-BLOCK-END */
&ANALYZE-RESUME


