&ANALYZE-SUSPEND _VERSION-NUMBER AB_v10r12
&ANALYZE-RESUME
&ANALYZE-SUSPEND _UIB-CODE-BLOCK _CUSTOM _DEFINITIONS Include 
/*------------------------------------------------------------------------
@file get-null.i
@description Function that passes back a blank or the text based on if
             the text is NULL (?) or not
             
@author John Oliver
@created 09.04.2020
  ----------------------------------------------------------------------*/

/* ***************************  Definitions  ************************** */

/* _UIB-CODE-BLOCK-END */
&ANALYZE-RESUME


&ANALYZE-SUSPEND _UIB-PREPROCESSOR-BLOCK 

/* ********************  Preprocessor Definitions  ******************** */



/* _UIB-PREPROCESSOR-BLOCK-END */
&ANALYZE-RESUME


/* ************************  Function Prototypes ********************** */

&ANALYZE-SUSPEND _UIB-CODE-BLOCK _FUNCTION-FORWARD replaceNull Include 
FUNCTION replaceNull RETURNS CHARACTER
  ( input pText as character )  FORWARD.

/* _UIB-CODE-BLOCK-END */
&ANALYZE-RESUME


/* *********************** Procedure Settings ************************ */

&ANALYZE-SUSPEND _PROCEDURE-SETTINGS
/* Settings for THIS-PROCEDURE
   Type: Include
   Allow: 
   Frames: 0
   Add Fields to: Neither
   Other Settings: INCLUDE-ONLY
 */
&ANALYZE-RESUME _END-PROCEDURE-SETTINGS

/* *************************  Create Window  ************************** */

&ANALYZE-SUSPEND _CREATE-WINDOW
/* DESIGN Window definition (used by the UIB) 
  CREATE WINDOW Include ASSIGN
         HEIGHT             = 15
         WIDTH              = 60.
/* END WINDOW DEFINITION */
                                                                        */
&ANALYZE-RESUME

 


&ANALYZE-SUSPEND _UIB-CODE-BLOCK _CUSTOM _MAIN-BLOCK Include 


/* ***************************  Main Block  *************************** */

/* _UIB-CODE-BLOCK-END */
&ANALYZE-RESUME


/* ************************  Function Implementations ***************** */

&ANALYZE-SUSPEND _UIB-CODE-BLOCK _FUNCTION replaceNull Include 
FUNCTION replaceNull RETURNS CHARACTER
  ( input pText as character ) :
/*------------------------------------------------------------------------------
  Purpose:  
    Notes:  
------------------------------------------------------------------------------*/
  if pText = ? or pText = "?"
    then pText = "".

  return pText.   /* Function return value. */

END FUNCTION.

/* _UIB-CODE-BLOCK-END */
&ANALYZE-RESUME

