&ANALYZE-SUSPEND _VERSION-NUMBER AB_v10r12
&ANALYZE-RESUME
&ANALYZE-SUSPEND _UIB-CODE-BLOCK _CUSTOM _DEFINITIONS Include 
/* tt/apinva.i
   Generic datastructure for A/P invoice Approvals
   D.Sinclair 5.25.2015
 */


&IF defined(tableAlias) = 0 &THEN
&scoped-define tableAlias apinva
&ENDIF

def temp-table {&tableAlias}

 field apinvID as int
 field seq as int
 field role as char          /* Required approval */
 field uid as char           /* Approver that is in the associated role */
 field dateActed as datetime /* Date approved set the status */
 field stat as char          /* P)ending, A)pproved, D)enied, T)entative: i.e. changed amount */
 field amount as deci
 field notes as char
 
 /* the following field is only for the UI */
 field username as char
 .

/* Indexes:  apinvID + seq (unique)
 */

/* _UIB-CODE-BLOCK-END */
&ANALYZE-RESUME


&ANALYZE-SUSPEND _UIB-PREPROCESSOR-BLOCK 

/* ********************  Preprocessor Definitions  ******************** */



/* _UIB-PREPROCESSOR-BLOCK-END */
&ANALYZE-RESUME



/* *********************** Procedure Settings ************************ */

&ANALYZE-SUSPEND _PROCEDURE-SETTINGS
/* Settings for THIS-PROCEDURE
   Type: Include
   Allow: 
   Frames: 0
   Add Fields to: Neither
   Other Settings: INCLUDE-ONLY
 */
&ANALYZE-RESUME _END-PROCEDURE-SETTINGS

/* *************************  Create Window  ************************** */

&ANALYZE-SUSPEND _CREATE-WINDOW
/* DESIGN Window definition (used by the UIB) 
  CREATE WINDOW Include ASSIGN
         HEIGHT             = 15
         WIDTH              = 60.
/* END WINDOW DEFINITION */
                                                                        */
&ANALYZE-RESUME

 


&ANALYZE-SUSPEND _UIB-CODE-BLOCK _CUSTOM _MAIN-BLOCK Include 


/* ***************************  Main Block  *************************** */

/* _UIB-CODE-BLOCK-END */
&ANALYZE-RESUME


