&ANALYZE-SUSPEND _VERSION-NUMBER AB_v10r12
&ANALYZE-RESUME
&ANALYZE-SUSPEND _UIB-CODE-BLOCK _CUSTOM _DEFINITIONS Include 
/*------------------------------------------------------------------------
@name findingreport.i
@description finding report datastructure
@author Anjly Chanana
@created 07/06/2017
@modified 07/15/2021 SA Task 83510 add new fields score and grade
------------------------------------------------------------------------*/

&IF defined(tableAlias) = 0 &THEN
&scoped-define tableAlias ttqarfinding
&ENDIF

def temp-table {&tableAlias}
 field qarID          as int
 field agentID        as char
 field name           as char
 field state          as char
 field auditStartDate as datetime
 field auditor        as char
 field questionID     as char
 field priority       as int
 field sectionID      as int
 field description    as char
 field comments       as char
 field files          as char
 field accounts       as char
 field reference      as char
 field auditType      as char
 field errType        as char
 field score          as int
 field grade          as int
 .

/* _UIB-CODE-BLOCK-END */
&ANALYZE-RESUME


&ANALYZE-SUSPEND _UIB-PREPROCESSOR-BLOCK 

/* ********************  Preprocessor Definitions  ******************** */



/* _UIB-PREPROCESSOR-BLOCK-END */
&ANALYZE-RESUME



/* *********************** Procedure Settings ************************ */

&ANALYZE-SUSPEND _PROCEDURE-SETTINGS
/* Settings for THIS-PROCEDURE
   Type: Include
   Allow: 
   Frames: 0
   Add Fields to: Neither
   Other Settings: INCLUDE-ONLY
 */
&ANALYZE-RESUME _END-PROCEDURE-SETTINGS

/* *************************  Create Window  ************************** */

&ANALYZE-SUSPEND _CREATE-WINDOW
/* DESIGN Window definition (used by the UIB) 
  CREATE WINDOW Include ASSIGN
         HEIGHT             = 15
         WIDTH              = 60.
/* END WINDOW DEFINITION */
                                                                        */
&ANALYZE-RESUME

 


&ANALYZE-SUSPEND _UIB-CODE-BLOCK _CUSTOM _MAIN-BLOCK Include 


/* ***************************  Main Block  *************************** */

/* _UIB-CODE-BLOCK-END */
&ANALYZE-RESUME


