&ANALYZE-SUSPEND _VERSION-NUMBER AB_v10r12
&ANALYZE-RESUME
&ANALYZE-SUSPEND _UIB-CODE-BLOCK _CUSTOM _DEFINITIONS Include 
/*------------------------------------------------------------------------
File        : tt/overpaymentfile.i
Purpose     :

Syntax      :

Description :

Author(s)   : Rahul Sharma
Created     : 01-08-2020
Notes       :

Modification:
Date          Name      Description

----------------------------------------------------------------------*/

&if defined(tablealias) = 0 &then
&scoped-define tableAlias overpaymentfile
&endif
   
define temp-table {&tableAlias}
  field stateID       as character
  field agentID       as character
  field name          as character
  field manager       as character
  field fileNumber    as character
  field fileID        as character
  field artranID      as integer
  field stat          as character
  field appliedAmt    as decimal
  field tranAmt       as decimal  
  field difference    as decimal.
  .

/* _UIB-CODE-BLOCK-END */
&ANALYZE-RESUME


&ANALYZE-SUSPEND _UIB-PREPROCESSOR-BLOCK 

/* ********************  Preprocessor Definitions  ******************** */



/* _UIB-PREPROCESSOR-BLOCK-END */
&ANALYZE-RESUME



/* *********************** Procedure Settings ************************ */

&ANALYZE-SUSPEND _PROCEDURE-SETTINGS
/* Settings for THIS-PROCEDURE
   Type: Include
   Allow: 
   Frames: 0
   Add Fields to: Neither
   Other Settings: INCLUDE-ONLY
 */
&ANALYZE-RESUME _END-PROCEDURE-SETTINGS

/* *************************  Create Window  ************************** */

&ANALYZE-SUSPEND _CREATE-WINDOW
/* DESIGN Window definition (used by the UIB) 
  CREATE WINDOW Include ASSIGN
         HEIGHT             = 15
         WIDTH              = 60.
/* END WINDOW DEFINITION */
                                                                        */
&ANALYZE-RESUME

 


&ANALYZE-SUSPEND _UIB-CODE-BLOCK _CUSTOM _MAIN-BLOCK Include 



/* _UIB-CODE-BLOCK-END */
&ANALYZE-RESUME


