&ANALYZE-SUSPEND _VERSION-NUMBER AB_v10r12
&ANALYZE-RESUME
&ANALYZE-SUSPEND _UIB-CODE-BLOCK _CUSTOM _DEFINITIONS Include 
/*------------------------------------------------------------------------
    File        : qarfinding.i
    Purpose     : hold FINDING dataset
    Author(s)   : D.Sinclair
    Created     : 3.22.2012
    Notes       :
    Modification:
    Date          Name      Description
    01/04/2017    AC        New field added to handle escrow accounts  
    08/09/2017    AG        Changes related to sectionID
    11/12/2021    SA        Task#:86696 new fields added for findingreport
  ----------------------------------------------------------------------*/
&IF defined(tableAlias) = 0 &THEN
&scoped-define tableAlias finding
&ENDIF

def temp-table {&tableAlias}
 field qarID as int
 field sectionID as int
 field questionSeq as int
 field questionID as char
 field description as char
 field priority as int
 field comments as char
 field files as char
 field accounts as char
 field reference as char
 field uid as char
 field version as char
 field year as int
 field agentID as char
 field agentName as char
 .

/* _UIB-CODE-BLOCK-END */
&ANALYZE-RESUME


&ANALYZE-SUSPEND _UIB-PREPROCESSOR-BLOCK 

/* ********************  Preprocessor Definitions  ******************** */



/* _UIB-PREPROCESSOR-BLOCK-END */
&ANALYZE-RESUME



/* *********************** Procedure Settings ************************ */

&ANALYZE-SUSPEND _PROCEDURE-SETTINGS
/* Settings for THIS-PROCEDURE
   Type: Include
   Allow: 
   Frames: 0
   Add Fields to: Neither
   Other Settings: INCLUDE-ONLY
 */
&ANALYZE-RESUME _END-PROCEDURE-SETTINGS

/* *************************  Create Window  ************************** */

&ANALYZE-SUSPEND _CREATE-WINDOW
/* DESIGN Window definition (used by the UIB) 
  CREATE WINDOW Include ASSIGN
         HEIGHT             = 15
         WIDTH              = 60.
/* END WINDOW DEFINITION */
                                                                        */
&ANALYZE-RESUME

 


&ANALYZE-SUSPEND _UIB-CODE-BLOCK _CUSTOM _MAIN-BLOCK Include 


/* ***************************  Main Block  *************************** */

/* _UIB-CODE-BLOCK-END */
&ANALYZE-RESUME


