&ANALYZE-SUSPEND _VERSION-NUMBER AB_v10r12
&ANALYZE-RESUME
&ANALYZE-SUSPEND _UIB-CODE-BLOCK _CUSTOM _DEFINITIONS Include 
/*------------------------------------------------------------------------
    File        : scoreanalysis.i
    Author(s)   : Anjly Chanana
    Created     : 08/16/2017
    Modified    : 
    Date          Name           Description
    10/08/2020    Anjly Chanana  Added TOR score fields
    07/15/2021    SA             Task 83510 add new fields score and grade
  ----------------------------------------------------------------------*/

&IF defined(tableAlias) = 0 &THEN
&scoped-define tableAlias scoreanalysis
&ENDIF

def temp-table {&tableAlias}
  field prevQarID as int
  field currentQarID as int
  field agentID as char
  field agentName as char
  field currentAuditor as char
  field prevAuditor as char
  field state as char
  field currentErrScore as int
  field prevErrScore as int
  field deltaErrScore as int
  field currentAuditScore as int
  field currentAuditgrade as int
  field prevAuditScore as int
  field prevAuditgrade as int
  field deltaAuditScore as int 
  field currentTorScore as int
  field prevTorScore as int
  field deltaTorScore as int
  field prevAuditFinishDate as datetime
  field currentAuditFinishDate as datetime
  field prevAudittype as char
  field audittype as char
  field auditGradeDiff as int
  .

/* _UIB-CODE-BLOCK-END */
&ANALYZE-RESUME


&ANALYZE-SUSPEND _UIB-PREPROCESSOR-BLOCK 

/* ********************  Preprocessor Definitions  ******************** */



/* _UIB-PREPROCESSOR-BLOCK-END */
&ANALYZE-RESUME



/* *********************** Procedure Settings ************************ */

&ANALYZE-SUSPEND _PROCEDURE-SETTINGS
/* Settings for THIS-PROCEDURE
   Type: Include
   Allow: 
   Frames: 0
   Add Fields to: Neither
   Other Settings: INCLUDE-ONLY
 */
&ANALYZE-RESUME _END-PROCEDURE-SETTINGS

/* *************************  Create Window  ************************** */

&ANALYZE-SUSPEND _CREATE-WINDOW
/* DESIGN Window definition (used by the UIB) 
  CREATE WINDOW Include ASSIGN
         HEIGHT             = 15
         WIDTH              = 60.
/* END WINDOW DEFINITION */
                                                                        */
&ANALYZE-RESUME

 


&ANALYZE-SUSPEND _UIB-CODE-BLOCK _CUSTOM _MAIN-BLOCK Include 


/* ***************************  Main Block  *************************** */

/* _UIB-CODE-BLOCK-END */
&ANALYZE-RESUME


