&ANALYZE-SUSPEND _VERSION-NUMBER AB_v10r12
&ANALYZE-RESUME
&ANALYZE-SUSPEND _UIB-CODE-BLOCK _CUSTOM _DEFINITIONS Include 
/*
 trxsummary.i
 Temp-table definition for Transaction Summary Report (wops16-r.w)
 Modification:
 Date        Name             Description
 04-25-2022   VR			  Task 93486 - Modified to add 'County'
							  field in Transaction Summary Report.
 */
 
&IF defined(tableAlias) = 0 &THEN
&scoped-define tableAlias trxsummary
&ENDIF

&IF defined(nodeType) = 0 &THEN
&scoped-define nodeType xml-node-type "attribute"
&ENDIF
 
def temp-table {&tableAlias}
 field stateID        as char {&nodeType}
 field CountyID       as char {&nodeType} 
 field formID         as char {&nodeType}
 field statCode       as char {&nodeType}
 field formType       as char {&nodeType}
 field seq            as int  {&nodeType}
 field formCode       as char {&nodeType}
 field formCount      as int  {&nodeType}
 field liabilityDelta as dec  {&nodeType}
 field grossDelta     as dec  {&nodeType}
 field netDelta       as dec  {&nodeType}
 field retentionDelta as dec  {&nodeType}
 .

/* _UIB-CODE-BLOCK-END */
&ANALYZE-RESUME


&ANALYZE-SUSPEND _UIB-PREPROCESSOR-BLOCK 

/* ********************  Preprocessor Definitions  ******************** */



/* _UIB-PREPROCESSOR-BLOCK-END */
&ANALYZE-RESUME



/* *********************** Procedure Settings ************************ */

&ANALYZE-SUSPEND _PROCEDURE-SETTINGS
/* Settings for THIS-PROCEDURE
   Type: Include
   Allow: 
   Frames: 0
   Add Fields to: Neither
   Other Settings: INCLUDE-ONLY
 */
&ANALYZE-RESUME _END-PROCEDURE-SETTINGS

/* *************************  Create Window  ************************** */

&ANALYZE-SUSPEND _CREATE-WINDOW
/* DESIGN Window definition (used by the UIB) 
  CREATE WINDOW Include ASSIGN
         HEIGHT             = 15
         WIDTH              = 60.
/* END WINDOW DEFINITION */
                                                                        */
&ANALYZE-RESUME

 


&ANALYZE-SUSPEND _UIB-CODE-BLOCK _CUSTOM _MAIN-BLOCK Include 


/* ***************************  Main Block  *************************** */

/* _UIB-CODE-BLOCK-END */
&ANALYZE-RESUME


