&ANALYZE-SUSPEND _VERSION-NUMBER AB_v10r12
&ANALYZE-RESUME
&ANALYZE-SUSPEND _UIB-CODE-BLOCK _CUSTOM _DEFINITIONS Include  
/*------------------------------------------------------------------------
@name vendor.i
@description Vendor temp table used for storing vendors from GP
@author John Oliver
@created 03/03/2016
------------------------------------------------------------------------*/


&IF defined(tableAlias) = 0 &THEN
&scoped-define tableAlias vendor
&ENDIF

define temp-table {&tableAlias}
  field vendorID as character
  field name as character
  field address as character
  field city as character
  field state as character
  field zipcode as character
  field acct as character
  field acctname as character
  field dept as character
  field deptname as character
  field active as logical
  field fulladdress as character
  field payablesActive as logical
  field payablesApproved as logical
  .


/* _UIB-CODE-BLOCK-END */
&ANALYZE-RESUME


&ANALYZE-SUSPEND _UIB-PREPROCESSOR-BLOCK 

/* ********************  Preprocessor Definitions  ******************** */



/* _UIB-PREPROCESSOR-BLOCK-END */
&ANALYZE-RESUME



/* *********************** Procedure Settings ************************ */

&ANALYZE-SUSPEND _PROCEDURE-SETTINGS
/* Settings for THIS-PROCEDURE
   Type: Include
   Allow: 
   Frames: 0
   Add Fields to: Neither
   Other Settings: INCLUDE-ONLY
 */
&ANALYZE-RESUME _END-PROCEDURE-SETTINGS

/* *************************  Create Window  ************************** */

&ANALYZE-SUSPEND _CREATE-WINDOW
/* DESIGN Window definition (used by the UIB) 
  CREATE WINDOW Include ASSIGN
         HEIGHT             = 15
         WIDTH              = 60.
/* END WINDOW DEFINITION */
                                                                        */
&ANALYZE-RESUME

 


&ANALYZE-SUSPEND _UIB-CODE-BLOCK _CUSTOM _MAIN-BLOCK Include 


/* ***************************  Main Block  *************************** */

/* _UIB-CODE-BLOCK-END */
&ANALYZE-RESUME


