AgentID,Name,Addr1,Addr2,City,State,County,Zip,Phone,Fax,Website,Email,StateID,RemitType,RemitValue,RemitAlert
031000,"Northwest Title Agency, Inc.",11811 North Tatum Boulevard ,Suite P111,Phoenix,AZ,,85028,,,,,AZ,P,0.15,
031025,"Alliant National Title Insurance Company on Behalf of Direct Title Insurance Agency, Inc.",4251 Kipling Street,Suite 400,Wheat Ridge,AZ,,80033,303-463-6563,303-463-6572,,,AZ,P,0.15,
031030,"NETCO, Inc.",401 Fountain Lakes,,St. Charles,AZ,,63301,(636) 925-8620,,,jrbraun@netcotitle.com,AZ,L,0.6,
031031,"Driggs Title Agency, Inc.",1951 W Camelback Road,Suite 101,Phoenix,AZ,,85015,602-980-7012,602-589-5301,,,AZ,P,0.15,
037108,"Select Title Agency of Arizona, LLC DBA Pro-Title Agency",4425 W. Olive Avenue,Suite 167,Glendale,AZ,,85302,605-512-9853,866-492-1859,,,AZ,P,0.15,
061006,"Ambassador Title Services, LLC",8774 Yates Drive,Suite 210,Westminster,CO,,80031,303-412-7676,303-412-7376,,,CO,P,0.15,
061007,"Innovative Title Agency, LLC",8774 Yates Drive,Suite 210B,Westminster,CO,,80031,303-430-7777,303-225-0020,,,CO,P,0.15,
061029,"Consumer Title Services, LLC",4155 E. Jewell Avenue,Suite 318,Denver,CO,,80222,303-639-5643,,,,CO,P,0.15,
061030,"Meridian Title & Escrow, LLC",200 Plaza Drive,Suite 130,Highlands Ranch,CO,,80129,,,,,CO,P,0.15,
061031,"Adroit Title Services, LLC",4155 E. Jewell Avenue,Suite 318,Denver,CO,,80222,303-589-7956,303-648-4790,,,CO,P,0.15,5000
061040,Sienna National Title Agency and Sienna Escrow Services,1932 W. 33rd Avenue #3-A,,Denver,CO,,80211,720-961-0432,(303) 974-1164,,,CO,P,0.15,
061045,"NETCO, Inc.",401 Fountain Lakes,,St. Charles,CO,,63301,(636) 925-8620,,,jrbraun@netcotitle.com,CO,L,0.6,
061050,"Landmark Escrow & Title, LLC",5990 Greenwood Plaza Blvd.,"Building 2, Suite 150",Greenwood Village,CO,,80111,303-217-5710,303-217-5711,,,CO,P,0.15,
061165,"Canyon Title Company, LLC",1127 Auraria Parkway,Suite 101,Denver,CO,,80204,303-831-7575,303-831-7585,,,CO,P,0.15,
061170,"Alliant National Title Insurance Company on behalf of Direct Title Insurance Agency, Inc.",1831 Lefthand Circle,Suite G,Longmont,CO,,80501,303-532-2828,303-532-2822,,,CO,P,0.15,
061200,Williams Title Guaranty and Escrow Agency LTD,650 South Cherry Street,Suite 115,Denver,CO,,80246,303-755-3765,303-785-8785,,,CO,P,0.15,
061205,"Alliant National Title Insurance Company on behalf of Clear Title, Inc.",1831 Lefthand Circle,Suite G,Longmont,CO,,80501,,,,,CO,P,0.15,
061210,"Alliant National Title Insurance Company on behalf of Morgan County Title, LLC",930 Main Street,Suite 1,Fort Morgan,CO,,80701,970-867-2304,970-867-2394,,morgancounty99@yahoo.com,CO,P,0.15,
061220,Vista Title Company,7333 W. Jefferson #180,,Lakewood,CO,,80235,303-989-0900,303-989-0990,,,CO,P,0.15,
061225,"Alliant National Title Insurance Company on behalf of Bankers Title, LLC ",1271 Kelly Johnson Blvd,Suite 240,Colorado Springs,CO,,80920,719-599-4114,719-266-6177,,michael@bankertitlecompany.com,CO,P,0.15,
061225,"Bankers Title, LLC",1271 Kelly Johnson Blvd.,Suite 240,Colorado Springs,CO,,80920,,,,,CO,P,0.15,
061230,Homestead Title and Escrow,710 Kipling Street,Suite 204,Lakewood,CO,,80215,303-815-1300,303-815-1309,,,CO,P,0.15,
061235,Alliant National Title Insurance Company,1831 Lefthand Circle,Suite G,Longmont,CO,Boulder,80501,877-788-9800,,,,CO,P,0.15,
061235,"Alliant National Title Insurance Company on behalf of NTC Colorado, LLC dba Premier Title Agency of Colorado",1831 Lefthand Circle,Suite G,Longmont,CO,,80501,303-637-0091,303-637-0559,,,CO,P,0.15,
061235,"NTC Colorado, LLC DBA Premier Title Agency of Colorado",10800 E. Bethany ,,Aurora,CO,,80014,303-309-3800,,,,CO,P,0.15,
061240,"Axis Title and Escrow, LLC",4643 S. Ulster Street,Suite 800,Denver,CO,,80237,303-773-0050,866-605-6311,,admin@axistitleco.com,CO,P,0.15,
061245,"Innovative Title Servcies, Inc.",4643 S. Ulster Street,Suite 800,Denver,CO,,80237,303-647-1221,303-648-4979,,,CO,P,0.15,
061250,"Trinity Title, LLC",1745 Shea Center Drive,Suite 300,Highlands Ranch,CO,,80129,303-470-1213,303-496-7778,www.trinity-title.com,,CO,P,0.15,
061255,"Enterprise Title, LLLP",201 Columbine St.,Suite 302,Denver,CO,,80206,303-597-3010,303-200-7263,,,CO,P,0.15,
061260,"U S Title Services, LLC",441 Wadsworth Blvd. #111,,Lakewood,CO,,80226,303-832-1238,866-438-1650,,,CO,P,0.15,
061265,"Clear Title Nationwide, Inc. - CO 1265",10980 Foster Street,Suite 140,Overland Park ,KS,,66213,,,,,KS,P,0.15,
061270,Sedgwick County Title Company,114 W. 1st St.,,Julesburg,CO,,80737,970-474-2696,970-474-2293,,,CO,P,0.15,
061275,"Mile High Title & Escrow, LLC",2821 S. Parker Road,Suite 235,Aurora,CO,,80014,303-398-7034,303-671-0516,,,CO,P,0.15,
067117,Montezuma-Dolores Title Co.,236 W. North St.,,Cortez,CO,,81321,970-565-8491,970-565-7050  ,,,CO,P,0.15,
067126,The Elbert County Abstract & Title Company,305 Comanche,P.O. Box 38,Kiowa,CO,,80117,303-621-2079,303-621-2615   ,,,CO,P,0.15,
067134,Commonwealth Title Company of Garfield County,127 East 5th St.,,Rifle,CO,,81650,970-625-3300,970-625-3305    ,,,CO,P,0.15,
091000,"NETCO, Inc.",401 Fountain Lakes,,St. Charles,FL,,63301,,,,,FL,P,0.3,
091001,"MTI Title Insurance Agency, Inc.",27544 Cashford Circle,Suite 101,Wesley Chapel,FL,,33544,813-973-7319,866-238-5816,,newtampa@masontitle.com,FL,P,0.3,
091002,"Prestige Title and Closing Services, LLC",1550 Wall Street #244,,St. Charles,MO,,63303,636-734-4780,636-246-4383,,,MO,P,0.5,
091005,"Advantage Title Partners, LLC","13700 58th St. North, Suite 203",ICOT Business Center,Clearwater,FL,,33760,727-393-2900,727-393-2991,,martha@rptats.com,FL,P,0.3,
091010,Sunshine Title Corporation,8613 Old Kings Road South Suite 100,,Jacksonville,FL,,32217,904-732-9394,904-732-9399,,,FL,P,0.3,
091015,"Mateer & Harbert, P.A.",225 E. Robinson Street,Suite 600,Orlando,FL,,32801,407-425-9044,407-423-2016,,,FL,P,0.3,
091020,"Cantwell & Goldman, P.A.",96 Willard Street #302,,Cocoa,FL,,32922,321-639-1320,321-639-9950,,,FL,P,0.3,
091030,"Island Title Services, Inc.",2828 E. Bearss Ave.,,Tampa,FL,,33613,(813) 269-7276,813-269-4617,,,FL,P,0.3,
091035,"Todd D. Walker, P.A.",10 Windsormere Way #200,PO Box 623275,Oviedo,FL,,32762-3275,407-977-1667,407-977-9448,,,FL,P,0.3,
091040,"Principal Title Services, LLC",1833 Edgewater Drive,,Orlando,FL,,32804,407-650-3912,407-650-3917,,,FL,P,0.3,
091045,"Island Title Services of Polk County, LLC",620 Robin Road,,Lakeland,FL,,33803,(813) 269-7276,863-937-9270,,,FL,P,0.3,
091050,"Lightsey & Associates, P.A.",2105 Park Avenue North,,Winter Park,FL,,32789,407-622-0025,407-622-0026,,,FL,P,0.3,
091055,"Island Title & Escrow Agency, Inc.",2245 N. Courtenay Parkway ,,Merritt Island,FL,,32953,321-453-6099,321-453-8773,,,FL,P,0.3,
091055,Island Title & Escrow Corp.,2245 N. Courtenay Parkway ,,Merritt Island,FL,,32953,321-453-6099,321-453-8773,,,FL,P,0.3,
091060,City Title Services LLC,540 E. Horatio Avenue,Suite 101,Maitland,FL,,32751,407-678-9797/888-280-8067,407-678-1625,,,FL,P,0.3,
091065,"H & S Title and Escrow, Inc.",151 Regions Way 1A,,Destin,FL,,32541,850-650-6621,850-650-6807,,,FL,P,0.3,
091070,"Karen Wonsetler, P.A.",860 N. Orange Avenue,Suite 135,Orlando,FL,,32801,407-770-0846,407-770-0843,,,FL,P,0.3,
091075,"The Title Station, Inc.",3200 N. Wickham Road #7,,Melbourne,FL,,32935,321-242-1690,321-242-1628,,,FL,P,0.3,
091075,"The Title Station, Inc.",2323 S. Washington Avenue,Suite 11,Titusville,FL,Brevard,32780,321-607-6841,,,desiree@thetitlestation.com,FL,P,0.3,
091080,Community Land Title Corporation,2400 SE Veterans Memorial Parkway,Suite 214,Port St. Lucie,FL,,34952,772-337-3335,772-337-3441,,bboothjr@aol.com,FL,P,0.3,
091085,"Integrity First Title, LLC",10312 Bloomingdale Avenue,Suite 102,Riverview,FL,,33578,813-202-8310,813-202-8315,,,FL,P,0.3,
091090,"DHI Title of Florida, Inc.",14055 Riveredge Drive,Suite 100,Tampa,FL,,33637,813-740-9693,813-740-9695,,,FL,P,0.3,
091095,"Law Office of Philip S. Kaprow, P.A.",1318 Town Plaza Court,,Winter Springs,FL,,32708,407-637-2909,407-358-5060,,,FL,P,0.3,
092000,"Internet Title Services, Inc.",660 Palm Springs Drive,Suite A and B,Altamonte Springs,FL,,32701,407-834-4700,407-834-4990,,,FL,P,0.3,
092005,"DHI Title of Florida, Inc.",5850 T.G. Lee Blvd.,Suite 135,Orlando,FL,,32822,407-856-6001,407-850-5244,,,FL,P,0.3,
092010,"DHI Title of Florida, Inc.",9456 West Philips Highway,Suite 1,Jacksonville,FL,,32256,,,,,FL,P,0.3,
092015,"DHI Title of Florida, Inc.",100 Rialto Place,Suite 800,Melbourne,FL,,32901,321-733-2113,800-664-4159,,,FL,P,0.3,
092020,"Williams Title Guaranty and Escrow Agency, LTD",6855 S. Havana Street #155,,Centennial,CO,,80112,,,,,CO,P,0.15,
092025,"Professional Title & Closing Services, Inc.",3210 North Wickham Road,Suite 2,Melbourne,FL,,32935,321-255-5451,321-259-5535,,,FL,P,0.3,
092030,"South Florida Title Services, Inc.",213-215 E. Ocean Blvd.,,Stuart,FL,,34994,772-286-9310,772-286-9312,,,FL,P,0.3,
092035,"Mosley & Wallis, PA",1221 E. New Haven Avenue,,Melbourne,FL,,32901,321-984-3842,321-768-1671,,,FL,P,0.3,
092040,"Krasny and Dettmer, Partnership of Professional Associations",304 South Harbor City Boulevard,Suite 201,Melbourne,FL,,32901,321-723-5646,321-768-1147,,,FL,P,0.3,
092045,"Federal Title Insurance Agency, Inc.",1193 South US Hwy 1,,Rockledge,FL,,32955,321-632-4871,321-639-4796,,,FL,P,0.3,
092050,"Closing Time Title, Inc.",42739 Highway 27,,Davenport,FL,,33837,863-420-8080,863-424-0977,,,FL,P,0.3,
092055,"Security First Title and Escrow, LLC",1600 Sarno Road,Suite 20,Melbourne,FL,,32935,321-454-9985,321-454-9814,,,FL,P,0.3,
092060,"Security First Title and Escrow, LLC",277 Crockett Blvd.,,Merritt Island,FL,,32953,,,,,FL,P,0.3,
092065,"Bogin, Munns & Munns, P.A.",2601 Technology Drive,,Orlando,FL,,32804,(407) 578-1334,(407) 578-2181,,,FL,P,0.3,
092065,"Bogin, Munns & Munns, P.A.",817 NW 56th Terrace,Suite A,Gainesville,FL,,32605,(352) 332-7688 ,,,,FL,P,0.3,
092070,"Oceanside Title & Escrow, Inc.",3501 Ocean Drive,,Vero Beach,FL,,32963,772-234-0700,772-234-0200,,,FL,P,0.3,
097106,"DHI Title of Florida, Inc.",1245 South Military Trail,Suite 100,Deerfield Beach,FL,,33442,954-949-3110,954-596-9502,,,FL,P,0.3,
097110,"Southern Title Holding Company, LLC d/b/a Southern Stewart Title",446 W. Plant Street,Suite 4,Winter Garden,FL,,34787,,,,,FL,P,0.3,
097110,"Southern Title Holding Company, LLC d/b/a Southern Title",2335 Beville Road,,Daytona Beach,FL,,32119,386-760-9010,386-760-0238,,,FL,P,0.3,
097110,"Southern Title Holding Company, LLC d/b/a Southern Title",440 Deltona Blvd.,,Deltona,FL,,32725,,,,,FL,P,0.3,
097110,"Southern Title Holding Company, LLC d/b/a Southern Title",400 Seabreeze Blvd.,,Daytona Beach,FL,,32118,,,,,FL,P,0.3,
097113,Title Professionals of Florida (FL7113),13241 University Drive,Suite 103,Ft. Myers,FL,,33907,239-433-2900,239-433-0233,,,FL,P,0.3,
097114,"Professional Associates of Florida, Ltd. (FL7114) ",331 W. Cape Coral Parkway,Suite C,Cape Coral,FL,,33914,239-540-2989,239-540-4265,,,FL,P,0.3,
097116,"Shumaker, Loop & Kendrick, LLP",240 S. Pineapple Avenue,,Sarasota,FL,,34236,941-366-6660,914-366-3999,,,FL,P,0.3,
097119,"Suncoast One Title, Inc.",357 W. Marion Ave.,,Punta Gorda,FL,,33950,941-205-2270,941-205-2271,www.suncoastone.com,,FL,P,0.3,
097123,"M & A Title, LLC",4767 New Broad Street,,Orlando,FL,,32814,407-514-2692,407-514-2613,,,FL,P,0.3,
097124,Columbia Title Research Corporation,200 Forest Lake Blvd.,Suite 2,Daytona Beach,FL,,32119,386-756-1000,386-756-1108   ,,,FL,P,0.3,
097125,"Marc H. Feldman, P.A.",3908 26th St. West,,Bradenton,FL,,34205,941-758-8888,941-870-1622,,,FL,P,0.3,
097128,Manzo & Associates,4767 New Broad St.,,Orlando,FL,,32814,,,,,FL,P,0.3,
097142,"All Pro Title, Inc.",6451 Third St.,Suite 1,Rockledge,FL,,32955,,,,,FL,P,0.3,
097144,"Mosley & Wallis Title Services, Inc.",1221 East New Haven Avenue,,Melbourne,FL,,32901,321-984-3842,321-768-1671,,,FL,P,0.3,
097112,"Boyd & Marks, LLC",360 North Babcock Street,Suite 104,Melbourne,FL,,32935,321-255-0600,321-255-0606,,,FL,P,0.3,
097114,"Professional Associates of Florida, Ltd. (FL7114)",13241 University Drive,Suite 103,Ft. Myers,FL,,,239-433-2900,239-433-0233,,,FL,P,0.3,
151000,"NETCO, Inc.",401 Fountain Lakes Blvd.,,"St. Charles, MO",IA,,63301,,,,,IA,L,0.6,
151005,Direct Title Insurance Agency Inc.,4251 Kipling Street,,Wheat Ridge,IA,,,,,,,IA,P,0.15,
161000,"Netco, Inc.",401 Fountain Lakes Blvd.,,St. Charles,KS,,63376,,,,,KS,L,0.6,
167129,"Clear Title Nationwide, Inc.",12980 Foster Street,Suite 140,Overland Park,KS,,66213,,,,,KS,P,0.15,
167130,"Secured Title of Kansas City, LLC",534 S. Kansas ,Suite 250,Topeka,KS,,66603,913-906-9845,913-906-9854,www.securedtitlekc.com,,KS,P,0.15,
167133,Great American Title Insurance Agency,506 W. Battlefield Road,,Springfield,MO,,65807,,,,,MO,P,0.5,
167136,"Accurate Title Company, LLC",7011 W. 121st Street,,Overland Park,KS,,66209,,,,,KS,P,0.15,
167146,"Coffelt Land Title, Inc.","P.O. Box 208, 401 S. Lexington",,Harrisonville,MO,,64701,,,,,MO,P,0.5,
251000,"NETCO, Inc.",401 Fountain Lakes Blvd.,,St. Charles,MO,,63301,636-925-8620,,,,MO,L,0.6,
251005,"Title Experts, LLC",11780 Manchester Road,Suite 107,Des Peres,MO,,63131,314-775-2175,314-821-7642,,,MO,P,0.5,
251010,"Vision Title, LLC",13610 Barrett Office Drive,Suite 110,Manchester,MO,,63021,314.394.1570,314.219.8574,,,MO,P,0.5,
251015,"Midwest Title & Escrow, LLC",2418 Hyde Park,,Jefferson City,MO,,65109,573-635-0615,573-635-0724,,,MO,P,0.5,
251020,"Coose Title, LLC",21 Prospect Drive,,Troy,MO,,63379,636-462-2220,636-528-3953,,,MO,P,0.5,
251025,"Valore Title, LLC",5350 College Blvd.,,Overland Park,KS,,66211,913-890-2070,913-890-2075,,,KS,P,0.15,
251030,"Accurate Title Company, LLC",7011 W. 121st Street,Suite 100,Overland Park,KS,,66209,913-338-0100,913-338-0107,www.accuratetitleco.com,,KS,P,0.15,
251035,"Investors Title Company, Inc.",7208 Weil Avenue,,Shrewsbury,MO,,63119,314-535-1600,,,,MO,P,0.37,
251040,Great American Title Insurance Agency,506 West Battlefield Street,,Springfield,MO,,65807,417-823-4994,417-447-1027,,,MO,P,0.5,
251040,Great American Title Insurance Agency,510C W. Battlefield,,Springfield,MO,,65807,,,,,MO,P,0.5,
251045,"Equity Land Title, LLC",11923 Olive Blvd.,,Creve Coeur,MO,,63141,314-991-2070,314-991-2071,,,MO,P,0.5,
251050,"Superior Land Title, LLC",4550 West 109th Street,Suite 150,Overland Park,KS,,66211,913-948-7780,913-948-7785,,,KS,P,0.15,
251050,"Superior Land Title, LLC",2911 Walnut,,Kansas City,MO,,64108,816-561-1511 ,816-561-1611 ,,,MO,P,0.5,
251055,"Cardinal Title, LLC",1000 Mid Rivers Mall Drive,,St. Peters,MO,,63376,636-397-4300,636-397-4646,,,MO,P,0.5,
251060,Affinity Title Company,110 N Liberty,,Independence,MO,,64050,816-833-4567,,,,MO,P,0.5,
251060,"Assured Title Company of Warrenton, LLC",10669 Highway 21,,Hillsboro,MO,,63050,636-797-2780,,,,MO,P,0.37,
251065,"Clear Title Nationwide, Inc.",200 NE Missouri Road,Suite 200 ,Lee's Summit,MO,,64086,913-451-3608,913-451-3649,,,MO,P,0.5,
251070,"Freedom Title, LLC","12400 Olive Blvd.,",Suite 200,Creve Coeur,MO,,63141,314-786-4000,314-744-5062,,,MO,P,0.5,
251075,"Bobette Shipman, attorney at law, D/B/A Lin-Pike Land Title Company",403 Broadway,,Elsberry ,MO,,63343,573-898-5530,573-898-5537,,,MO,P,0.5,
251085,"National Title & Escrow, LLC",510 N. One Mile Road,Suite C,Dexter,MO,,63841,573-624-9990,573-624-9995,,,MO,P,0.5,
257127,"Alliance Title Co., L.L.C.",400K Cumberland Way,,Sullivan,MO,,,573-468-7333,573-860-7502,,,MO,P,0.5,
257131,"Missouri Secured Title, Inc.",200 S. Spring St.,,Independence ,MO,,74050,816-471-1560,816-471-1426,,,MO,P,0.5,
257132,"Coffelt Land Title, Inc.",P.O. Box 208,401 S. Lexington,Harrisonville,MO,,64701,816-380-3441,816-380-3448,www.coffeltlandtitle.com,,MO,P,0.5,
317137,"Aztec Abstract & Title Insurance, Inc.","120 W. Commercial, Suite A",P.O. Box 1233,Portales,NM,,88130,515-359-2132,575-359-2147   ,,,NM,P,0.2,
317137,"Aztec Abstract & Title Insurance, Inc.",508 N. Main Street,,Clovis,NM,,88101,(575) 762-1063 ,(575) 762-1065 ,,,NM,P,0.2,
317138,"De Baca Abstract, Inc.",P.O. Box 330,,Fort Sumner,NM,,88119,575-355-2431,575-355-2850  ,,,NM,P,0.2,
317139,"Southwestern Title and Escrow, Inc. ",236 Montezuma Ave.,,Santa Fe,NM,,87501,505-820-1800,505-946-2964,www.sftitles.com,,NM,P,0.2,
317140,"First Title Services, Inc.",216 S. Second St. ,P.O. Box 1288,Tucumcari,NM,,88401,575-461-1300,575-461-2946,,,NM,P,0.2,
317141,"IRMC, Inc. dba Alamogordo Title Company","1100 New York Ave., Suite A",P.O. Box 88,Alamogordo,NM,,88310,575-437-2741,575-437-3360,,,NM,P,0.2,
317143,"The Title Company, Inc.","508 Mechem Drive, Suite B",,Ruidoso,NM,,88345,575-257-5555,575-257-5588,,,NM,P,0.2,
287148,"Capital Title Company of Nevada, LLC",10539 Professional Circle,Suite 102,Reno,NV,,89521,775-850-7770,775-850-7766,www.ctcnv.com,,NV,P,0.15,
401000,The AgentOwned Realty Company/Premiere Group Inc.,824 Johnnie Dodds Blvd.,,Mt. Pleasant,SC,,29464,843-725-5041,843-725-2350,,,SC,P,0.4,
401005,"The AgentOwned Realty Company/Charleston Group, Inc.",824 Johnnie Dodds Blvd.,,Mt. Pleasant,SC,,29464,843-725-5041,843-725-2350,,,SC,P,0.4,
401010,"The AgentOwned Realty Company/Heritage Group, Inc.",824 Johnnie Dodds Blvd.,,Mt. Pleasant,SC,,29464,843-725-5041,843-725-2350,,,SC,P,0.4,
401015,"The AgentOwned Realty Company/Preferred Group, Inc.",824 Johnnie Dodds Blvd.,,Mt. Pleasant,SC,,29464,843-725-5041,843-725-2350,,,SC,P,0.4,
401025,"Netco, Inc.",401 Fountain Lakes Blvd.,,St. Charles,SC,,63301,,,,,SC,L,0.6,
407109,The AgentOwned Realty Company/Foothills Group Inc.,824 Johnnie Dodds Blvd.,,Mt. Pleasant,SC,,29464,843-725-5041,,,,SC,P,0.4,
431000,"Reliant Title Agency, LLC",8300 N. Mopac ,Suite 115,Austin,TX,"Bexar, Collin, Dallas, Harris, Montgomery, Travis, Williamson",78759,512-279-1160,512-646-7329,,,TX,P,0.15,
431015,"Alliant National Title Insurance Company, Inc., on behalf of Direct Title, LLC",10101 Reunion Place,Suite 250,San Antonio,TX,,78216,,,,,TX,P,0.15,
431020,"Ellis County Abstract & Title Company, Inc.",100 Executive Court Suite 2,,Waxahachi,TX,,75165,,,,,TX,P,0.15,
431030,Security Abstract & Title Company of Abilene,4400 Buffalo Gap Road,Suite 1100,Abilene,TX,"Callahan, Eastland, Jones, Shackelford, , Taylor, Coleman, Runnels & Stephens",79606,325-695-1144,325-695-1152,,,TX,P,0.15,
431030,Security Abstract & Title Company of Abilene,115 S. Lamar,,Eastland,TX,,76448,254-629-1300,254-629-1302,,,TX,P,0.15,
431030,Security Abstract & Title Company of Abilene,211 W. Walker,,Breckenridge,TX,,76424,,,,,TX,P,0.15,
431030,Security Abstract & Title Company of Abilene ,801 Hutchings Avenue,,Ballinger,TX,"Taylor, Callahan, Eastland, Jones, Shackelford, St",76821,325-365-4848,,,,TX,P,0.15,
431035,Land Exchange Abstract and Title Company,3201 East Stan Schlueter Loop,,Killeen,TX,,76542,254-634-2227,254-634-4447,,,TX,P,0.15,
431036,Land Exchange Abstract and Title Company,401 S. Main Street,,Copperas Cove,TX,"Coryell, Lampasas",76522,,,,,TX,P,0.15,
431040,Basin Abstract & Title,4526 E. University Blvd.,"Bldg. 2, Suite A ",Odessa,TX,,78762,,,,,TX,P,0.15,
431040,"Permian Basin Title Services, Inc., D/B/A Basin Abstract & Title","4526 E. University, #2-A",,Odessa,TX,,79762,,,,,TX,P,0.15,
431050,DHI Title of Central Texas,12554 Riata Vista Circle,1st Floor,Austin,TX,"Bell,Bexar,Comal,Fort Bend,Guadalupe,Harris,Hays,Montgomery,Travis,Williamson",78727,512-249-3965,,,,TX,P,0.15,
431051,"DHI Title of Texas, LTD.",6761 North Freeway,Suite A,Fort Worth,TX,"Collin,Dallas,Denton,Hunt,Kaufman,Rockwall,Tarrant,Wise",76131,817-230-0600,,,,TX,P,0.15,
431060,"NETCO, Inc.",401 Fountain Lakes,,St. Charles,TX,,63301,(636) 925-8620,,,jrbraun@netcotitle.com,TX,P,0.15,
431100,Northwest Title Agency Inc.,"130 Ft. McKavitt,  Suite 203",P.O. Box 1741,Mason,TX,,76856,325-247-5001,325-347-5088,,,TX,P,0.15,
432000,AmeriPoint Title Houston,617 Caroline,,Houston,TX,,77002,713-228-0801,713-228-2522,,,TX,P,0.15,
432000,AmeriPoint Title Houston - Uptown,1333 West Loop South,Suite 1550,Houston,TX,,77027,,,,,TX,P,0.15,
432000,AmeriPoint Title Houston-Angleton,122 East Myrtle,,Angleton,TX,,77515,979-849-0500,,,,TX,P,0.15,
432000,AmeriPoint Title Houston-Riverway,1 Riverway,"777 S. Post Oak Lane,Suite 1700",Houston,TX,,77056,713-622-3720,,,,TX,P,0.15,
432000,AmeriPoint Title Houston-Southwest,6360 Corporate Drive,Suite B,Houston,TX,,77036,832-200-4572,,,,TX,P,0.15,
432000,AmeriPoint Title Houston-Spring,8620 Spring Cypress Road,Suite D,Spring,TX,,77379,281-374-9400,281-374-9405,,,TX,P,0.15,
432050,"Alliant National Title Insurance Company, Inc.",1831 Lefthand Circle,Suite G,Longmont,CO,,80501,,,,,CO,P,0.15,
432050,Rattikin Title Company,201 Main Street,Suite 800,Fort Worth,TX,"Parker, Tarrant",76102,(817) 332-1171 ,,,,TX,P,0.15,
432100,Kincy Abstract and Sabine Title Company,2500 IH 30,P.O. Box 1413,Greenville,TX,,75402,,,,,TX,P,0.15,
432125,AmeriPoint Title New Braunfels,376 Landa Street,,New Braunfels,TX,,78130,,,,,TX,P,0.15,
432150,AmeriPoint Title San Antonio,10101 Reunion Place,Suite 250,San Antonio,TX,,78216,,,,,TX,P,0.15,
432175,"Contemporary Solutions-USA, Inc. dba Texas Pioneer Title",103 W. McDermott Drive,,Allen,TX,,75013,,,,,TX,P,0.15,
432200,Neel Title Corporation,1202 Welby Court,,Laredo,TX,"Duval, Jim Hogg, La Salle, Webb, Zapata ",78041,956-723-6346,956-727-9979,,,TX,P,0.15,
432225,"Marshall, King & Hinson, Inc.",500 Oak Street,P.O. Box 787,Graham,TX,,76450,,,,,TX,P,0.15,
432250,"Central Texas Land Titles, Inc.",6810 Ranch Road 2147 West,P.O. Box 8903,Horseshoe Bay,TX,,78657,830-598-4898,830-598-4776,,,TX,P,0.15,
432275,Preston Title Incorporated,5045 Lorimar Street,Suite 180,Plano,TX,,75093,,,,,TX,P,0.15,
433004,North Texas Title of Greenville,5408-A Wesley Street,,Greenville,TX,Hunt,75402,903-454-3364,903-454-3825,,,TX,P,0.15,
433025,"Lone Star Title Company of El Paso, Inc.",6701 N. Mesa Street,,El Paso,TX,,79912,915-545-2222,915-545-1104,,,TX,P,0.15,
433030,Homeland Title Company,"724 WSW Loop 323, Suite D",,Tyler,TX,,75701,,,,,TX,P,0.15,
433050,University Title Company,1021 University Drive East,P.O. Drawer Dt,College Station,TX,,77841-5079,979-260-9818,979-691-8268,,,TX,P,0.15,
433075,Jefferson County Title Company,80 Interstate 10 North,,Beaumont,TX,Jefferson,77702,409-833-9191,409-833-3865,,,TX,P,0.15,
434000,Attorney's Land & Title Company,P.O. Box 896,205 N Main,Quitman,TX,,75783,,903-769-4100,,,TX,P,0.15,
434001,Arnold Abstract Company ,211 E. Main,,Henderson,TX,,75652,903-657-2254,903-657-8326,,,TX,P,0.15,
434002,Free State Abstract and Title Company,309 South Buffalo,P. O. Box 969,Canton,TX,,75103,903-567-5664,903-567-5564,,,TX,P,0.15,
434003,Jacksonville Title Company,724 Cherokee Trail,,Jacksonville,TX,,75766,,,,,TX,P,0.15,
434004,Lake Country Title Company,886 E. Lennon Drive,Suite 108,Emory,TX,,75440,903-473-2212,903-473-0079,,,TX,P,0.15,
434005,Longview Title Company,1516 Judson Road,,Longview,TX,,75601,,,,,TX,P,0.15,
434006,Marion County Title Company,226 N. Polk,,Jefferson,TX,,75657,903-665-0600,903 665-0602,,,TX,P,0.15,
434007,East Texas Title Company of Harrison Co,P O Box 8137,,Marshall,TX,,75670,903-935-6060,903-935-6071,,,TX,P,0.15,
434008,East Texas Title Company of Panola County,109 S. Sycamore,,Carthage,TX,,75633,903-690-0300,903-690-0315,,,TX,P,0.15,
434009,Upshur County Title Company,111 W. Tyler Street,Suite A,Gilmer,TX,,75644,,,,,TX,P,0.15,
434010,East Texas Title Company,1021 ESE Loop 323 Ste 400,,Tyler,TX,Smith,75701,903-561-8060,903-561-8195,,,TX,P,0.15,
434011,Jackson Title Company,211 East Moore Ave,,Terrel,TX,,75160,972-524-2419,972-5242428,,,TX,P,0.15,
434025,Crossroads Abstract & Title Co.,6316 N. Navarro,,Victoria,TX,,77904,,,,,TX,P,0.15,
434030,"Priority One Title, LLC","14505 Torrey Chase, Suite 100",,Houston,TX,,77014,281-907-2155,281-397-9288,,,TX,P,0.15,
434031,"Exodus Title, LLC",14505 Torrey Chase #100,,Houston,TX,,77014,281-397-9200,281-397-9288,,,TX,P,0.15,
434040,"Frontier Title Company, WH, L.L.C.",23501 Cinco Ranch Blvd. ,Suite B 226,Katy,TX,"Fort Bend,Harris",77494,2813919181,2813919188,,,TX,P,0.15,
434050,"West Texas Abstract & Title Company, LLC",3700 N. Big Spring Street,,Midland,TX,"Midland, Culberson, & Martin",79705,432-683-4861,432-683-6763,,,TX,P,0.15,
434075,"West Texas Title Company, Inc.",8001 Quaker Avenue,Suite E,Lubbock,TX,Lubbock,79424,,,,,TX,P,0.15,
435000,American Title Company of East Texas,4501 Rowlett Road,Suite 100,Rowlett,TX,,75088,972-475-0508,972-475-2983,,,TX,P,0.15,
435010,Cross Timbers Title,166 S. Belknap,Suite 1,Stephenville,TX,,76401,,,,,TX,P,0.15,
435015,Central Texas Title,105 E. Pearl,,Granbury,TX,,76048,(817) 573-3733,,,,TX,P,0.15,
435020,"The Brown County Abstract Company, Inc.",201 South Broadway,P.O. Box 819,Brownwood,TX,,76801,325-646-6591,325-643-5086,,,TX,P,0.15,
435025,"Heritage Title Company of Austin, Inc.",401 Congress Avenue,Suite 1500,Austin,TX,,78701,512-505-5000,512-505-5024,,,TX,P,0.15,
435030,Security & Guaranty Abstract & Title Company,517 South First Street,,Lufkin,TX,,75901-3867,936-632-6661,936-637-3272,,,TX,P,0.15,
435035,"Northshore Title, Inc.",15210-A Northwest Blvd.,,Robstown,TX,,78380,,,,,TX,P,0.15,
435035,"Northshore Title, Inc.","101 Cedar Drive, Suite G",P.O. Box 780,Portland,TX,,78374,361-643-7566,361-643-7568,,,TX,P,0.15,
435040,"Stone Title Company, Inc.",33 NW First Street,,Paris,TX,,75460,,,,,TX,P,0.15,
435045,"Texas First Title Company, LLC",601 East Lacy Street,,Palestine,TX,,75801,,,,,TX,P,0.15,
435050,"Presidio Title, Inc.",7373 Broadway,Suite 105,San Antonio,TX,,78209,210 757 9600,210 757 9675,,,TX,P,0.15,
435055,Chapin TItle Company,620 North Travis Street,,Sherman,TX,,75090,903-868-1415,903-868-9483,,,TX,P,0.15,
435065,CentraLand Title Company,2005 Birdcreek Drive,Suite 100,Temple,TX,,76502,,,,,TX,P,0.15,
435070,Hexter-Fair Title Company,8333 Douglas Avenue,Suite 190,Dallas,TX,,75225,,,,,TX,P,0.15,
435070,Hexter-Fair Title Company,6000 Long Prairie Road,Suite 200,Flower Mound,TX,,75028,972 724-0400,972 724-3545,,rbaxter@hexter-fair.com,TX,P,0.15,
435075,"Landmark Title, Inc.",4595 Kinsey Drive,,Tyler,TX,,75703,903-534-8000,903 534 8161,,,TX,P,0.15,
435080,"Jones Title Company, LLC",1122 Judson Road,Suite C,Longview,TX,,75601,(903) 236-4990,(903) 236-6210,,,TX,P,0.15,
435085,"Regency Title Company, LLC",207 N. Church St.,,McKinney,TX,Collin and Dallas,75069,,,,,TX,P,0.15,
435090,"Texas Southern Land Title, LLC",916 S. Mason Road,Suite B,Katy,TX,,77450,281-994-5100,281-994-5101,,,TX,P,0.15,
435095,Jones & Renfrow Abstracters,802 9th Street,,Paducah,TX,,79248,806-492-3573,806-492-3574,,,TX,P,0.15,
436000,"Irion County Abstract Co.,Inc.",P.O. Box 800,"209 N. Parkview, 3rd floor",Mertzon,TX,,76941,(325) 835-2811,(325) 835-4101,,,TX,P,0.15,
436005,"Valero Title, Inc.",1100  NW Loop 410,Suite 304,San Antonio,TX,"Bexar, Ft. Bend, Harris, Travis, Williamson",78213,,,,,TX,P,0.15,
436010,Surety Title,136 West Twohig,,San Angelo,TX,,76903,,,,,TX,P,0.15,
436010,Surety Title,803 Hutchings,,Ballinger,TX,,76821,325-365-5713,325-365-3897,,,TX,P,0.15,
436010,Surety Title - San Saba,314 East Wallace,,San Saba,TX,,76877,(325)372-6501,(325)372-3228,,suretyss@centex.net,TX,P,0.15,
436020,Innovative Title Company,6750 West Loop South,Suite 450,Bellaire,TX,,77401,713-715-4400,,,,TX,P,0.15,
436025,Southwest Abstract & Title Company,P.O. Box 13,1006 Rankin Avenue,Rankin,TX,,79778,432-693-2242,,,,TX,P,0.15,
436030,Elliott and Waldron Abstract Company of Pecos,119 E. Fourth,PO Box 312,Pecos,TX,,79772,432-445-4983,432-445-4984,,,TX,P,0.15,
436035,Warren Title Company,P.O. Box 60,519 Montgomery Street,Dickens,TX,Motley and Dickens,79229,806-623-5252,806-623-5389,,,TX,P,0.15,
436040,"Superior Abstract and Title, LLC",8240 Preston Rd,Suite 250,Plano,TX,BexarBrazoriaCollinComalDallasDentonElPasoFtBendGalvestonGuadalupeHarrisHaysJeffersonJ,75024,214-705-1310,214-705-1323,,,TX,P,0.15,
436045,South Plains Abstract Company,408 North 1st Street,,Lamesa,TX,,79331,806-872-3023,806-872-2904,,,TX,P,0.15,
436055,"Lynn County Abstract & Title, Inc.",1540 Avenue J,,Tahoka,TX,Lynn,79373,806-998-4022,806-998-4839,,,TX,P,0.15,
436060,Covenant Title Company,201 S Main Street,P.O. Box 929,Perryton,TX,,79070,,,,,TX,P,0.15,
436060,Covenant Title Company,115 South Main,PO Box 636,Booker,TX,,79005,806-658-4504,806-658-4500,,,TX,P,0.15,
436065,"Gray County Title Company, Inc.",408 West Kingsmill,Suite 171 A,Pampa,TX,,79066,806-665-8241,,,,TX,P,0.15,
436070,Collingsworth Abstract Company,P. O. Box 247,811 A West Avenue,Wellington,TX,,79095,806-447-2868,806-447-0248,,collingsworthabst@cebridge.net,TX,P,0.15,
436075,"High Plains Abstract, Inc.",406 Denrock,,Dalhart,TX,,79022,806-249-5772,806-249-6523,,,TX,P,0.15,
436080,Valley Land Title Co.,612 Nolana Avenue,Suite 570,McAllen,TX,,78504,956-383-2708,956 217-3190,,,TX,P,0.15,
436085,"Mid-Coast Title Company, Inc.",111 North Fulton Street,,Wharton,TX,Wharton,77488,979-532-1512,,,,TX,P,0.15,
436090,Kerr County Abstract & Title Co.,712 Earl Garrett,,Kerrville,TX,Kerr,78028,830-257-5151,830-792-4330,,,TX,P,0.15,
437000,Wise County Title Company,405 Park West Court,,Decatur,TX,Wise,76234,940-627-3581,940-627-5944,,,TX,P,0.15,
437005,"Rio Grande Valley Abstract Company, Inc. ",5800 Padre Blvd,Suite A,South Padre Island,TX,,78597,,,,,TX,P,0.15,
437010,"Farwell Abstract Co., Inc. ",P.O. Box 286,,Farwell,TX,,79325,806-481-9992,,,,TX,P,0.15,
437011,Muleshoe Abstract Company ,103 W Avenue D,,Muleshoe,TX,Bailey,79347,806-272-4732,,,,TX,P,0.15,
437015,"Driggs Title Agency, Inc.",19901 Southwest Freeway,Suite 234,Sugar Land,TX,,77479,281-545-2300,713-583-2035,,nikkie@driggstitle.com,TX,P,0.15,
437020,Crockett County Abstract Company,1108 Avenue E,,Ozona,TX,,76943,,,,,TX,P,0.15,
437035,"American Guaranty Title, LLC",331 W Hwy 6 Ste A,,Waco,TX,McLennan,76710,254/399-8485,254/399-8486,,vicki_mason@agtitle.com,TX,P,0.15,
437040,Red River Title Company,421 North Crockett Street,,Sherman,TX,,75090,903-868-4446,903-868-4314,,,TX,P,0.15,
437045,"Texas Legacy Land Title, LLC",701 S. Taylor Street,Suite 102,Amarillo,TX,,79101,806-374-3386,806-342-0013,,mark@markmosleylaw.com,TX,P,0.15,
437050,Bay Area Title Services,5306 Holly Road,Suite A,Corpus Christi,TX,,78411,361-906-0001,,,,TX,P,0.15,
437107,Tarver Abstract Company,400 Main St.,,Liberty,TX,Liberty,77575,936-336-3614,936-336-9632 ,www.tarverabstract.com,,TX,P,0.15,
437115,Permian Basin Abstract Company,127 N.W.  Avenue A,,Andrews,TX,,79714,432-523-2295,,,,TX,P,0.15,
437115,Permian Basin Abstract Company,102 S. Main,,Seminole,TX,"Gaines, Andrews",79360,432-758-1400,432-758-1402,,,TX,P,0.15,
437120,"Crane County Abstract Company, LLC",304 W. 6th Street,,Crane,TX,Crane,79731,432-558-3112,,,,TX,P,0.15,
437121,Allegiance Title Company,6030 Sherry Lane,,Dallas,TX,"Collin, Dallas, Denton ",75225,214-373-3500,214-368-7520  ,www.allegiancetitle.com,,TX,P,0.15,
437122,Providence Title Company,5001 US Highway 287 South,Suite ,Arlington,TX,"Atascosa,Bexar,Brazoria,Collin,Comal,Dallas,Denton,Ellis,Ft. Bend,Guadalupe,Harris,Johnson, Medina, Montgomery,Nueces, Parker,Rockwall,San Patricio,Tarrant, Travis,Williamson ",76107,817-483-9100,817-572-2504,www.protitletx.com,,TX,P,0.15,
437145,"GPS Title, Inc. dba Porter Title Company",1924 Acton Highway,,Granbury,TX,Hood,76049,817-579-3100,817-573-5467,www.portertitle.com,,TX,P,0.15,
437147,"ARCLand Title, LLC",1300 Glade Road,,Colleyville,TX,"Harris, Montgomery, Tarrant",76034,817-281-4747,817-281-4750,,,TX,P,0.15,
