1101,2011,1,C
1102,2011,2,C
1103,2011,3,C
1104,2011,4,C
1105,2011,5,C
1106,2011,6,C
1107,2011,7,C
1108,2011,8,C
1109,2011,9,C
1110,2011,10,C
1111,2011,11,C
1112,2011,12,C
1201,2012,1,C
1202,2012,2,C
1203,2012,3,C
1204,2012,4,C
1205,2012,5,C
1206,2012,6,C
1207,2012,7,C
1208,2012,8,C
1209,2012,9,C
1210,2012,10,C
1211,2012,11,C
1212,2012,12,C
1301,2013,1,O
1302,2013,2,O
1303,2013,3,O
